FONCE 44 (+) ~ CLAIR 44 = 14 (+) ~ 12 ; 18 (+) ~ 14 ; 12 ~ 18 (+) ; 
FONCE 47 (+) ~ CLAIR 35 = 16 (+) ~ 15 ; 20 (+) ~ 7 ; 11 ~ 13 (+) ; 
FONCE 35 ~ CLAIR 55 (+) = 13 ~ 17 (+) ; 12 ~ 18 (+) ; 10 ~ 20 (+) ; 
FONCE 48 (+) ~ CLAIR 35 = 16 (+) ~ 14 ; 18 (+) ~ 11 ; 14 (+) ~ 10 ; 
FONCE 35 ~ CLAIR 56 (+) = 10 ~ 20 (+) ; 12 ~ 18 (+) ; 13 ~ 18 (+) ; 
FONCE 44 (+) ~ CLAIR 42 = 12 ~ 17 (+) ; 14 (+) ~ 13 ; 18 (+) ~ 12 ; 
FONCE 48 (+) ~ CLAIR 36 = 19 (+) ~ 10 ; 13 ~ 14 (+) ; 16 (+) ~ 12 ; 
FONCE 48 (+) ~ CLAIR 42 = 14 ~ 15 (+) ; 15 ~ 15 ; 19 (+) ~ 12 ; 
FONCE 46 (+) ~ CLAIR 34 = 20 (+) ~ 8 ; 9 ~ 15 (+) ; 17 (+) ~ 11 ; 
FONCE 36 ~ CLAIR 47 (+) = 5 ~ 20 (+) ; 15 ~ 15 ; 16 (+) ~ 12 ; 
FONCE 47 (+) ~ CLAIR 45 = 20 (+) ~ 11 ; 17 (+) ~ 14 ; 10 ~ 20 (+) ; 
FONCE 46 ~ CLAIR 47 (+) = 12 ~ 19 (+) ; 15 ~ 16 (+) ; 19 (+) ~ 12 ; 
FONCE 39 ~ CLAIR 49 (+) = 13 (+) ~ 12 ; 13 ~ 18 (+) ; 13 ~ 19 (+) ; 
FONCE 34 ~ CLAIR 53 (+) = 12 ~ 18 (+) ; 14 ~ 15 (+) ; 8 ~ 20 (+) ; 
FONCE 47 (+) ~ CLAIR 37 = 20 (+) ~ 10 ; 13 (+) ~ 12 ; 14 ~ 15 (+) ; 
FONCE 39 ~ CLAIR 49 (+) = 19 (+) ~ 12 ; 14 ~ 17 (+) ; 6 ~ 20 (+) ; 
FONCE 36 ~ CLAIR 51 (+) = 14 ~ 16 (+) ; 13 ~ 15 (+) ; 9 ~ 20 (+) ; 
FONCE 39 ~ CLAIR 47 (+) = 14 ~ 17 (+) ; 20 (+) ~ 10 ; 5 ~ 20 (+) ; 
FONCE 52 (+) ~ CLAIR 39 = 13 ~ 18 (+) ; 20 (+) ~ 10 ; 19 (+) ~ 11 ; 
FONCE 51 (+) ~ CLAIR 41 = 13 ~ 17 (+) ; 18 (+) ~ 13 ; 20 (+) ~ 11 ; 
FONCE 42 (+) ~ CLAIR 41 = 11 ~ 12 (+) ; 15 ~ 16 (+) ; 16 (+) ~ 13 ; 
FONCE 44 (+) ~ CLAIR 40 = 17 (+) ~ 15 ; 14 ~ 14 ; 13 (+) ~ 11 ; 
FONCE 40 ~ CLAIR 47 (+) = 15 ~ 15 ; 14 ~ 16 (+) ; 11 ~ 16 (+) ; 
FONCE 48 (+) ~ CLAIR 39 = 15 ~ 16 (+) ; 19 (+) ~ 12 ; 14 (+) ~ 11 ; 
FONCE 42 ~ CLAIR 47 (+) = 13 ~ 18 (+) ; 11 ~ 19 (+) ; 18 (+) ~ 10 ; 
FONCE 49 (+) ~ CLAIR 41 = 16 (+) ~ 15 ; 17 (+) ~ 13 ; 16 (+) ~ 13 ; 
FONCE 36 ~ CLAIR 48 (+) = 17 (+) ~ 10 ; 11 ~ 20 (+) ; 8 ~ 18 (+) ; 
FONCE 34 ~ CLAIR 51 (+) = 13 ~ 17 (+) ; 15 (+) ~ 14 ; 6 ~ 20 (+) ; 
FONCE 55 (+) ~ CLAIR 34 = 19 (+) ~ 12 ; 20 (+) ~ 10 ; 16 (+) ~ 12 ; 
FONCE 46 (+) ~ CLAIR 39 = 18 (+) ~ 13 ; 14 (+) ~ 9 ; 14 ~ 17 (+) ; 
FONCE 44 (+) ~ CLAIR 42 = 6 ~ 20 (+) ; 19 (+) ~ 10 ; 19 (+) ~ 12 ; 
FONCE 34 ~ CLAIR 54 (+) = 13 ~ 17 (+) ; 12 ~ 17 (+) ; 9 ~ 20 (+) ; 
FONCE 31 ~ CLAIR 51 (+) = 10 ~ 13 (+) ; 13 ~ 18 (+) ; 8 ~ 20 (+) ; 
FONCE 33 ~ CLAIR 48 (+) = 4 ~ 20 (+) ; 12 ~ 17 (+) ; 17 (+) ~ 11 ; 
FONCE 50 (+) ~ CLAIR 41 = 18 (+) ~ 12 ; 20 (+) ~ 9 ; 12 ~ 20 (+) ; 
FONCE 44 ~ CLAIR 45 (+) = 20 (+) ~ 8 ; 14 ~ 17 (+) ; 10 ~ 20 (+) ; 
FONCE 48 (+) ~ CLAIR 29 = 20 (+) ~ 4 ; 12 ~ 18 (+) ; 16 (+) ~ 7 ; 
FONCE 44 (+) ~ CLAIR 39 = 16 (+) ~ 15 ; 18 (+) ~ 10 ; 10 ~ 14 (+) ; 
FONCE 46 (+) ~ CLAIR 34 = 20 (+) ~ 4 ; 11 ~ 16 (+) ; 15 (+) ~ 14 ; 
FONCE 32 ~ CLAIR 55 (+) = 13 ~ 15 (+) ; 8 ~ 20 (+) ; 11 ~ 20 (+) ; 
FONCE 43 ~ CLAIR 49 (+) = 17 (+) ~ 14 ; 11 ~ 20 (+) ; 15 ~ 15 ; 
FONCE 42 ~ CLAIR 43 (+) = 15 ~ 16 (+) ; 16 (+) ~ 10 ; 11 ~ 17 (+) ; 
FONCE 43 ~ CLAIR 49 (+) = 15 ~ 17 (+) ; 13 ~ 17 (+) ; 15 ~ 15 ; 
FONCE 42 (+) ~ CLAIR 38 = 20 (+) ~ 12 ; 10 ~ 13 (+) ; 12 ~ 13 (+) ; 
FONCE 45 (+) ~ CLAIR 43 = 12 ~ 14 (+) ; 18 (+) ~ 13 ; 15 ~ 16 (+) ; 
FONCE 35 ~ CLAIR 40 (+) = 9 ~ 20 (+) ; 15 (+) ~ 9 ; 11 ~ 11 ; 
FONCE 46 (+) ~ CLAIR 39 = 16 (+) ~ 15 ; 13 (+) ~ 11 ; 17 (+) ~ 13 ; 
FONCE 52 (+) ~ CLAIR 43 = 19 (+) ~ 12 ; 17 (+) ~ 13 ; 16 ~ 18 (+) ; 
FONCE 49 (+) ~ CLAIR 44 = 18 (+) ~ 12 ; 16 ~ 16 ; 15 ~ 16 (+) ; 
FONCE 42 ~ CLAIR 46 (+) = 17 (+) ~ 13 ; 15 (+) ~ 13 ; 10 ~ 20 (+) ; 
FONCE 23 ~ CLAIR 56 (+) = 6 ~ 20 (+) ; 11 ~ 16 (+) ; 6 ~ 20 (+) ; 
FONCE 42 ~ CLAIR 46 (+) = 20 (+) ~ 10 ; 7 ~ 20 (+) ; 15 ~ 16 (+) ; 
FONCE 50 (+) ~ CLAIR 39 = 18 (+) ~ 11 ; 12 ~ 20 (+) ; 20 (+) ~ 8 ; 
FONCE 44 (+) ~ CLAIR 42 = 14 ~ 15 (+) ; 20 (+) ~ 10 ; 10 ~ 17 (+) ; 
FONCE 51 (+) ~ CLAIR 38 = 20 (+) ~ 9 ; 15 ~ 15 ; 16 (+) ~ 14 ; 
FONCE 42 ~ CLAIR 45 (+) = 12 ~ 15 (+) ; 13 ~ 15 (+) ; 17 (+) ~ 15 ; 
FONCE 45 ~ CLAIR 46 (+) = 15 (+) ~ 14 ; 15 ~ 16 (+) ; 15 ~ 16 (+) ; 
FONCE 39 (+) ~ CLAIR 37 = 6 ~ 9 (+) ; 17 (+) ~ 14 ; 16 (+) ~ 14 ; 
FONCE 46 (+) ~ CLAIR 41 = 19 (+) ~ 12 ; 12 ~ 16 (+) ; 15 (+) ~ 13 ; 
FONCE 50 (+) ~ CLAIR 38 = 20 (+) ~ 10 ; 17 (+) ~ 11 ; 13 ~ 17 (+) ; 
FONCE 44 ~ CLAIR 52 (+) = 16 (+) ~ 15 ; 13 ~ 20 (+) ; 15 ~ 17 (+) ; 
FONCE 52 (+) ~ CLAIR 39 = 20 (+) ~ 9 ; 17 (+) ~ 14 ; 15 ~ 16 (+) ; 
FONCE 49 (+) ~ CLAIR 34 = 16 (+) ~ 12 ; 13 ~ 14 (+) ; 20 (+) ~ 8 ; 
FONCE 45 ~ CLAIR 48 (+) = 15 ~ 18 (+) ; 16 (+) ~ 13 ; 14 ~ 17 (+) ; 
FONCE 43 ~ CLAIR 48 (+) = 14 ~ 17 (+) ; 18 (+) ~ 11 ; 11 ~ 20 (+) ; 
FONCE 49 (+) ~ CLAIR 39 = 13 ~ 15 (+) ; 18 (+) ~ 12 ; 18 (+) ~ 12 ; 
FONCE 40 ~ CLAIR 52 (+) = 14 ~ 17 (+) ; 11 ~ 19 (+) ; 15 ~ 16 (+) ; 
FONCE 39 ~ CLAIR 47 (+) = 16 (+) ~ 15 ; 12 ~ 20 (+) ; 11 ~ 12 (+) ; 
FONCE 51 (+) ~ CLAIR 39 = 11 ~ 20 (+) ; 20 (+) ~ 9 ; 20 (+) ~ 10 ; 
FONCE 41 ~ CLAIR 44 (+) = 13 ~ 16 (+) ; 13 ~ 13 ; 15 ~ 15 ; 
FONCE 44 ~ CLAIR 47 (+) = 14 ~ 16 (+) ; 16 (+) ~ 15 ; 14 ~ 16 (+) ; 
FONCE 36 ~ CLAIR 51 (+) = 12 ~ 16 (+) ; 6 ~ 20 (+) ; 18 (+) ~ 15 ; 
FONCE 54 (+) ~ CLAIR 35 = 19 (+) ~ 12 ; 16 (+) ~ 15 ; 19 (+) ~ 8 ; 
FONCE 31 ~ CLAIR 50 (+) = null ~ 20 (+) ; 17 (+) ~ 14 ; 14 ~ 16 (+) ; 
FONCE 27 ~ CLAIR 41 (+) = null ~ 20 (+) ; 11 (+) ~ 9 ; 16 (+) ~ 12 ; 
FONCE 37 ~ CLAIR 49 (+) = 17 (+) ~ 12 ; 9 ~ 18 (+) ; 11 ~ 19 (+) ; 
FONCE 42 ~ CLAIR 49 (+) = 16 (+) ~ 15 ; 15 (+) ~ 14 ; 11 ~ 20 (+) ; 
FONCE 53 (+) ~ CLAIR 38 = 20 (+) ~ 11 ; 18 (+) ~ 12 ; 15 ~ 15 ; 
FONCE 38 ~ CLAIR 55 (+) = 11 ~ 19 (+) ; 12 ~ 18 (+) ; 15 ~ 18 (+) ; 
FONCE 37 ~ CLAIR 47 (+) = 15 ~ 16 (+) ; 7 ~ 15 (+) ; 15 ~ 16 (+) ; 
FONCE 49 (+) ~ CLAIR 43 = 17 (+) ~ 13 ; 13 ~ 18 (+) ; 19 (+) ~ 12 ; 
FONCE 35 ~ CLAIR 47 (+) = 14 (+) ~ 12 ; 13 ~ 18 (+) ; 8 ~ 17 (+) ; 
FONCE 56 (+) ~ CLAIR 36 = 20 (+) ~ 9 ; 19 (+) ~ 13 ; 17 (+) ~ 14 ; 
FONCE 32 ~ CLAIR 46 (+) = 17 (+) ~ 13 ; 3 ~ 20 (+) ; 12 ~ 13 (+) ; 
FONCE 19 ~ CLAIR 59 (+) = null ~ 20 (+) ; 9 ~ 20 (+) ; 10 ~ 19 (+) ; 
FONCE 44 ~ CLAIR 44 = 11 ~ 15 (+) ; 17 (+) ~ 13 ; 16 ~ 16 ; 
FONCE 27 ~ CLAIR 50 (+) = 14 (+) ~ 12 ; null ~ 20 (+) ; 13 ~ 18 (+) ; 
FONCE 38 ~ CLAIR 43 (+) = 14 (+) ~ 13 ; 7 ~ 20 (+) ; 17 (+) ~ 10 ; 
FONCE 33 ~ CLAIR 47 (+) = 4 ~ 20 (+) ; 13 ~ 17 (+) ; 16 (+) ~ 10 ; 
FONCE 51 (+) ~ CLAIR 31 = 20 (+) ~ 6 ; 15 (+) ~ 13 ; 16 (+) ~ 12 ; 
FONCE 51 (+) ~ CLAIR 40 = 17 (+) ~ 14 ; 17 (+) ~ 12 ; 17 (+) ~ 14 ; 
FONCE 45 ~ CLAIR 48 (+) = 14 ~ 16 (+) ; 14 ~ 17 (+) ; 17 (+) ~ 15 ; 
FONCE 51 (+) ~ CLAIR 40 = 15 ~ 15 ; 16 ~ 16 ; 20 (+) ~ 9 ; 
FONCE 37 ~ CLAIR 45 (+) = 10 ~ 20 (+) ; 15 ~ 15 ; 12 (+) ~ 10 ; 
FONCE 49 (+) ~ CLAIR 43 = 17 (+) ~ 14 ; 20 (+) ~ 10 ; 12 ~ 19 (+) ; 
FONCE 43 (+) ~ CLAIR 41 = 16 (+) ~ 12 ; 18 (+) ~ 13 ; 9 ~ 16 (+) ; 
FONCE 34 ~ CLAIR 56 (+) = 15 ~ 16 (+) ; 7 ~ 20 (+) ; 12 ~ 20 (+) ; 
FONCE 38 ~ CLAIR 48 (+) = 13 ~ 13 ; 14 ~ 16 (+) ; 11 ~ 19 (+) ; 
FONCE 43 ~ CLAIR 43 (+) = 20 (+) ~ 6 ; 12 ~ 18 (+) ; 11 ~ 19 (+) ; 
FONCE 47 (+) ~ CLAIR 35 = 14 ~ 15 (+) ; 16 (+) ~ 6 ; 17 (+) ~ 14 ; 
FONCE 42 ~ CLAIR 48 (+) = 9 ~ 20 (+) ; 16 (+) ~ 14 ; 17 (+) ~ 14 ; 
FONCE 40 ~ CLAIR 42 (+) = 7 ~ 20 (+) ; 18 (+) ~ 10 ; 15 (+) ~ 12 ; 
FONCE 48 (+) ~ CLAIR 46 = 14 ~ 18 (+) ; 19 (+) ~ 12 ; 15 ~ 16 (+) ; 
FONCE 34 ~ CLAIR 56 (+) = 15 ~ 17 (+) ; 7 ~ 20 (+) ; 12 ~ 19 (+) ; 
FONCE 48 (+) ~ CLAIR 35 = 18 (+) ~ 13 ; 14 (+) ~ 11 ; 16 (+) ~ 11 ; 
FONCE 43 (+) ~ CLAIR 30 = 7 ~ 8 (+) ; 20 (+) ~ 7 ; 16 (+) ~ 15 ; 
FONCE 42 ~ CLAIR 47 (+) = 16 (+) ~ 15 ; 13 ~ 16 (+) ; 13 ~ 16 (+) ; 
FONCE 37 ~ CLAIR 49 (+) = 12 ~ 20 (+) ; 14 ~ 15 (+) ; 11 ~ 14 (+) ; 
FONCE 53 (+) ~ CLAIR 40 = 20 (+) ~ 8 ; 14 ~ 20 (+) ; 19 (+) ~ 12 ; 
FONCE 48 (+) ~ CLAIR 41 = 14 ~ 14 ; 15 ~ 15 ; 19 (+) ~ 12 ; 
FONCE 38 ~ CLAIR 54 (+) = 13 ~ 18 (+) ; 14 ~ 17 (+) ; 11 ~ 19 (+) ; 
FONCE 43 ~ CLAIR 45 (+) = 15 ~ 17 (+) ; 12 ~ 19 (+) ; 16 (+) ~ 9 ; 
FONCE 40 ~ CLAIR 46 (+) = 17 (+) ~ 10 ; 12 ~ 16 (+) ; 11 ~ 20 (+) ; 
FONCE 28 ~ CLAIR 47 (+) = 16 (+) ~ 13 ; 12 ~ 18 (+) ; null ~ 16 (+) ; 
FONCE 38 ~ CLAIR 43 (+) = 13 ~ 16 (+) ; 12 (+) ~ 10 ; 13 ~ 17 (+) ; 
FONCE 46 (+) ~ CLAIR 39 = 20 (+) ~ 6 ; 11 ~ 16 (+) ; 15 ~ 17 (+) ; 
FONCE 53 (+) ~ CLAIR 34 = 17 (+) ~ 12 ; 17 (+) ~ 10 ; 19 (+) ~ 12 ; 
FONCE 39 ~ CLAIR 55 (+) = 12 ~ 19 (+) ; 13 ~ 19 (+) ; 14 ~ 17 (+) ; 
FONCE 55 (+) ~ CLAIR 32 = 17 (+) ~ 14 ; 20 (+) ~ 9 ; 18 (+) ~ 9 ; 
FONCE 51 (+) ~ CLAIR 37 = 14 ~ 15 (+) ; 17 (+) ~ 14 ; 20 (+) ~ 8 ; 
FONCE 41 (+) ~ CLAIR 34 = 15 (+) ~ 10 ; 8 ~ 12 (+) ; 18 (+) ~ 12 ; 
FONCE 51 (+) ~ CLAIR 30 = 18 (+) ~ 14 ; 20 (+) ~ 7 ; 13 (+) ~ 9 ; 
FONCE 45 (+) ~ CLAIR 44 = 15 ~ 16 (+) ; 16 (+) ~ 15 ; 14 (+) ~ 13 ; 
FONCE 49 (+) ~ CLAIR 38 = 16 (+) ~ 15 ; 15 ~ 15 ; 18 (+) ~ 8 ; 
FONCE 40 ~ CLAIR 49 (+) = 11 ~ 18 (+) ; 13 ~ 18 (+) ; 16 (+) ~ 13 ; 
FONCE 51 (+) ~ CLAIR 33 = 18 (+) ~ 13 ; 13 ~ 14 (+) ; 20 (+) ~ 6 ; 
FONCE 35 ~ CLAIR 44 (+) = 16 (+) ~ 11 ; 10 ~ 20 (+) ; 9 ~ 13 (+) ; 
FONCE 48 (+) ~ CLAIR 44 = 15 ~ 15 ; 17 (+) ~ 14 ; 16 (+) ~ 15 ; 
FONCE 48 (+) ~ CLAIR 37 = 20 (+) ~ 8 ; 12 ~ 12 ; 16 ~ 17 (+) ; 
FONCE 38 ~ CLAIR 45 (+) = 17 (+) ~ 13 ; 8 ~ 19 (+) ; 13 ~ 13 ; 
FONCE 35 ~ CLAIR 43 (+) = 19 (+) ~ 11 ; 5 ~ 20 (+) ; 11 ~ 12 (+) ; 
FONCE 40 ~ CLAIR 48 (+) = 16 (+) ~ 15 ; 15 ~ 19 (+) ; 9 ~ 14 (+) ; 
FONCE 53 (+) ~ CLAIR 40 = 15 ~ 16 (+) ; 20 (+) ~ 10 ; 18 (+) ~ 14 ; 
FONCE 49 (+) ~ CLAIR 43 = 20 (+) ~ 10 ; 17 (+) ~ 14 ; 12 ~ 19 (+) ; 
FONCE 42 ~ CLAIR 48 (+) = 13 ~ 18 (+) ; 13 ~ 17 (+) ; 16 (+) ~ 13 ; 
FONCE 34 ~ CLAIR 54 (+) = 12 ~ 16 (+) ; 12 ~ 18 (+) ; 10 ~ 20 (+) ; 
FONCE 38 ~ CLAIR 41 (+) = 9 (+) ~ 8 ; 13 ~ 18 (+) ; 16 (+) ~ 15 ; 
FONCE 51 (+) ~ CLAIR 40 = 18 (+) ~ 11 ; 16 (+) ~ 15 ; 17 (+) ~ 14 ; 
FONCE 31 ~ CLAIR 48 (+) = 14 ~ 16 (+) ; 10 ~ 12 (+) ; 7 ~ 20 (+) ; 
FONCE 47 (+) ~ CLAIR 40 = 12 ~ 16 (+) ; 20 (+) ~ 8 ; 15 ~ 16 (+) ; 
FONCE 37 ~ CLAIR 47 (+) = 17 (+) ~ 13 ; 5 ~ 18 (+) ; 15 ~ 16 (+) ; 
FONCE 44 ~ CLAIR 47 (+) = 16 (+) ~ 15 ; 13 ~ 16 (+) ; 15 ~ 16 (+) ; 
FONCE 33 ~ CLAIR 57 (+) = 9 ~ 20 (+) ; 14 ~ 17 (+) ; 10 ~ 20 (+) ; 
FONCE 37 ~ CLAIR 38 (+) = 13 ~ 13 ; 17 (+) ~ 12 ; 7 ~ 13 (+) ; 
FONCE 45 ~ CLAIR 49 (+) = 15 ~ 17 (+) ; 19 (+) ~ 12 ; 11 ~ 20 (+) ; 
FONCE 38 ~ CLAIR 40 (+) = 17 (+) ~ 14 ; 14 ~ 17 (+) ; 7 ~ 9 (+) ; 
FONCE 44 (+) ~ CLAIR 42 = 15 ~ 15 ; 17 (+) ~ 11 ; 12 ~ 16 (+) ; 
FONCE 48 (+) ~ CLAIR 42 = 16 (+) ~ 12 ; 19 (+) ~ 10 ; 13 ~ 20 (+) ; 
FONCE 50 (+) ~ CLAIR 41 = 15 ~ 15 ; 15 ~ 16 (+) ; 20 (+) ~ 10 ; 
FONCE 50 (+) ~ CLAIR 40 = 20 (+) ~ 10 ; 13 ~ 19 (+) ; 17 (+) ~ 11 ; 
FONCE 48 (+) ~ CLAIR 44 = 14 ~ 17 (+) ; 16 (+) ~ 15 ; 18 (+) ~ 12 ; 
FONCE 19 ~ CLAIR 57 (+) = 14 ~ 17 (+) ; null ~ 20 (+) ; 5 ~ 20 (+) ; 
FONCE 39 ~ CLAIR 51 (+) = 14 ~ 17 (+) ; 10 ~ 20 (+) ; 15 (+) ~ 14 ; 
FONCE 43 (+) ~ CLAIR 40 = 20 (+) ~ 9 ; 10 ~ 20 (+) ; 13 (+) ~ 11 ; 
FONCE 47 (+) ~ CLAIR 44 = 16 (+) ~ 15 ; 16 (+) ~ 13 ; 15 ~ 16 (+) ; 
FONCE 40 ~ CLAIR 46 (+) = 13 ~ 17 (+) ; 9 ~ 16 (+) ; 18 (+) ~ 13 ; 
FONCE 47 (+) ~ CLAIR 42 = 15 (+) ~ 13 ; 12 ~ 19 (+) ; 20 (+) ~ 10 ; 
FONCE 40 ~ CLAIR 50 (+) = 13 ~ 18 (+) ; 14 ~ 15 (+) ; 13 ~ 17 (+) ; 
FONCE 35 ~ CLAIR 50 (+) = 11 ~ 19 (+) ; 10 ~ 14 (+) ; 14 ~ 17 (+) ; 
FONCE 48 (+) ~ CLAIR 38 = 16 (+) ~ 15 ; 18 (+) ~ 8 ; 14 ~ 15 (+) ; 
FONCE 49 (+) ~ CLAIR 40 = 15 (+) ~ 14 ; 15 ~ 15 ; 19 (+) ~ 11 ; 
FONCE 43 (+) ~ CLAIR 42 = 17 (+) ~ 11 ; 15 ~ 15 ; 11 ~ 16 (+) ; 
FONCE 55 (+) ~ CLAIR 33 = 20 (+) ~ 8 ; 19 (+) ~ 10 ; 16 (+) ~ 15 ; 
FONCE 40 ~ CLAIR 44 (+) = 15 ~ 16 (+) ; 17 (+) ~ 13 ; 8 ~ 15 (+) ; 
FONCE 36 (+) ~ CLAIR 29 = 16 (+) ~ 15 ; 5 ~ 9 (+) ; 15 (+) ~ 5 ; 
FONCE 37 ~ CLAIR 55 (+) = 12 ~ 19 (+) ; 11 ~ 19 (+) ; 14 ~ 17 (+) ; 
FONCE 38 ~ CLAIR 45 (+) = 14 ~ 15 (+) ; 12 ~ 12 ; 12 ~ 18 (+) ; 
FONCE 40 ~ CLAIR 42 (+) = 14 ~ 17 (+) ; 6 ~ 20 (+) ; 20 (+) ~ 5 ; 
FONCE 44 ~ CLAIR 48 (+) = 13 ~ 18 (+) ; 16 (+) ~ 14 ; 15 ~ 16 (+) ; 
FONCE 44 ~ CLAIR 44 (+) = 13 ~ 15 (+) ; 15 ~ 16 (+) ; 16 (+) ~ 13 ; 
FONCE 38 ~ CLAIR 50 (+) = 12 ~ 16 (+) ; 16 (+) ~ 14 ; 10 ~ 20 (+) ; 
FONCE 44 ~ CLAIR 47 (+) = 16 (+) ~ 15 ; 14 ~ 16 (+) ; 14 ~ 16 (+) ; 
FONCE 48 (+) ~ CLAIR 39 = 18 (+) ~ 12 ; 16 (+) ~ 14 ; 14 (+) ~ 13 ; 
FONCE 46 ~ CLAIR 47 (+) = 14 ~ 17 (+) ; 15 ~ 16 (+) ; 17 (+) ~ 14 ; 
FONCE 42 ~ CLAIR 47 (+) = 14 (+) ~ 13 ; 15 ~ 16 (+) ; 13 ~ 18 (+) ; 
FONCE 29 ~ CLAIR 49 (+) = 9 ~ 19 (+) ; 15 (+) ~ 14 ; 5 ~ 16 (+) ; 
FONCE 39 ~ CLAIR 50 (+) = 16 (+) ~ 14 ; 11 ~ 19 (+) ; 12 ~ 17 (+) ; 
FONCE 34 ~ CLAIR 54 (+) = 13 ~ 16 (+) ; 9 ~ 20 (+) ; 12 ~ 18 (+) ; 
FONCE 52 (+) ~ CLAIR 33 = 14 (+) ~ 13 ; 18 (+) ~ 11 ; 20 (+) ~ 9 ; 
FONCE 39 ~ CLAIR 46 (+) = 17 (+) ~ 14 ; 16 (+) ~ 12 ; 6 ~ 20 (+) ; 
FONCE 47 (+) ~ CLAIR 45 = 16 (+) ~ 13 ; 12 ~ 20 (+) ; 19 (+) ~ 12 ; 
FONCE 42 (+) ~ CLAIR 38 = 10 ~ 15 (+) ; 16 (+) ~ 10 ; 16 (+) ~ 13 ; 
FONCE 50 (+) ~ CLAIR 41 = 16 ~ 16 ; 17 (+) ~ 8 ; 17 ~ 17 ; 
FONCE 57 (+) ~ CLAIR 34 = 17 (+) ~ 13 ; 20 (+) ~ 10 ; 20 (+) ~ 11 ; 
FONCE 38 ~ CLAIR 40 (+) = 19 (+) ~ 13 ; 16 (+) ~ 15 ; 3 ~ 12 (+) ; 
FONCE 41 ~ CLAIR 50 (+) = 13 ~ 18 (+) ; 15 (+) ~ 14 ; 13 ~ 18 (+) ; 
FONCE 30 ~ CLAIR 45 (+) = 13 ~ 13 ; null ~ 20 (+) ; 17 (+) ~ 12 ; 
FONCE 39 ~ CLAIR 50 (+) = 16 ~ 16 ; 16 (+) ~ 14 ; 7 ~ 20 (+) ; 
FONCE 25 ~ CLAIR 60 (+) = 6 ~ 20 (+) ; 9 ~ 20 (+) ; 10 ~ 20 (+) ; 
FONCE 47 (+) ~ CLAIR 38 = 17 (+) ~ 13 ; 20 (+) ~ 6 ; 10 ~ 19 (+) ; 
FONCE 25 ~ CLAIR 50 (+) = 10 ~ 13 (+) ; 7 ~ 17 (+) ; 8 ~ 20 (+) ; 
FONCE 51 (+) ~ CLAIR 41 = 20 (+) ~ 12 ; 11 ~ 20 (+) ; 20 (+) ~ 9 ; 
FONCE 41 ~ CLAIR 42 (+) = 20 (+) ~ 10 ; 13 ~ 13 ; 8 ~ 19 (+) ; 
FONCE 45 ~ CLAIR 47 (+) = 12 ~ 20 (+) ; 15 (+) ~ 14 ; 18 (+) ~ 13 ; 
FONCE 42 ~ CLAIR 49 (+) = 10 ~ 20 (+) ; 16 (+) ~ 15 ; 16 (+) ~ 14 ; 
FONCE 37 ~ CLAIR 49 (+) = 12 ~ 20 (+) ; 11 ~ 18 (+) ; 14 (+) ~ 11 ; 
FONCE 36 ~ CLAIR 50 (+) = 12 ~ 18 (+) ; 11 ~ 20 (+) ; 13 (+) ~ 12 ; 
FONCE 48 (+) ~ CLAIR 39 = 20 (+) ~ 10 ; 14 ~ 16 (+) ; 14 (+) ~ 13 ; 
FONCE 33 ~ CLAIR 51 (+) = 10 ~ 20 (+) ; 12 ~ 13 (+) ; 11 ~ 18 (+) ; 
FONCE 49 (+) ~ CLAIR 45 = 14 ~ 19 (+) ; 17 (+) ~ 14 ; 18 (+) ~ 12 ; 
FONCE 34 ~ CLAIR 49 (+) = 6 ~ 20 (+) ; 13 ~ 14 (+) ; 15 ~ 15 ; 
FONCE 38 ~ CLAIR 50 (+) = 11 ~ 16 (+) ; 12 ~ 19 (+) ; 15 ~ 15 ; 
FONCE 47 (+) ~ CLAIR 42 = 20 (+) ~ 7 ; 16 (+) ~ 15 ; 11 ~ 20 (+) ; 
FONCE 43 (+) ~ CLAIR 31 = 9 (+) ~ 8 ; 15 (+) ~ 13 ; 19 (+) ~ 10 ; 
FONCE 41 ~ CLAIR 49 (+) = 14 ~ 16 (+) ; 9 ~ 20 (+) ; 18 (+) ~ 13 ; 
FONCE 38 ~ CLAIR 53 (+) = 17 (+) ~ 14 ; 9 ~ 20 (+) ; 12 ~ 19 (+) ; 
FONCE 47 (+) ~ CLAIR 41 = 14 ~ 15 (+) ; 19 (+) ~ 12 ; 14 ~ 14 ; 
FONCE 48 (+) ~ CLAIR 40 = 17 (+) ~ 11 ; 17 (+) ~ 13 ; 14 ~ 16 (+) ; 
FONCE 46 (+) ~ CLAIR 39 = 14 (+) ~ 9 ; 16 (+) ~ 14 ; 16 ~ 16 ; 
FONCE 35 ~ CLAIR 51 (+) = 11 ~ 18 (+) ; 10 ~ 17 (+) ; 14 ~ 16 (+) ; 
FONCE 48 (+) ~ CLAIR 41 = 15 (+) ~ 14 ; 19 (+) ~ 11 ; 14 ~ 16 (+) ; 
FONCE 47 (+) ~ CLAIR 43 = 11 ~ 20 (+) ; 16 (+) ~ 14 ; 20 (+) ~ 9 ; 
FONCE 44 (+) ~ CLAIR 41 = 10 ~ 14 (+) ; 19 (+) ~ 12 ; 15 ~ 15 ; 
FONCE 47 (+) ~ CLAIR 45 = 14 ~ 16 (+) ; 13 ~ 18 (+) ; 20 (+) ~ 11 ; 
FONCE 50 (+) ~ CLAIR 35 = 19 (+) ~ 9 ; 18 (+) ~ 10 ; 13 ~ 16 (+) ; 
FONCE 48 (+) ~ CLAIR 45 = 16 (+) ~ 15 ; 16 (+) ~ 15 ; 16 (+) ~ 15 ; 
FONCE 42 ~ CLAIR 49 (+) = 15 ~ 15 ; 17 (+) ~ 14 ; 10 ~ 20 (+) ; 
FONCE 42 ~ CLAIR 43 (+) = 10 ~ 20 (+) ; 14 ~ 14 ; 18 (+) ~ 9 ; 
FONCE 38 ~ CLAIR 49 (+) = 13 ~ 14 (+) ; 14 ~ 15 (+) ; 11 ~ 20 (+) ; 
FONCE 59 (+) ~ CLAIR 32 = 20 (+) ~ 10 ; 20 (+) ~ 10 ; 19 (+) ~ 12 ; 
FONCE 41 ~ CLAIR 50 (+) = 14 ~ 16 (+) ; 13 ~ 19 (+) ; 14 ~ 15 (+) ; 
FONCE 46 (+) ~ CLAIR 45 = 13 ~ 20 (+) ; 15 ~ 16 (+) ; 18 (+) ~ 9 ; 
FONCE 43 ~ CLAIR 51 (+) = 13 ~ 19 (+) ; 20 (+) ~ 12 ; 10 ~ 20 (+) ; 
FONCE 46 (+) ~ CLAIR 44 = 15 ~ 16 (+) ; 16 (+) ~ 15 ; 15 (+) ~ 13 ; 
FONCE 34 ~ CLAIR 44 (+) = 7 ~ 16 (+) ; 10 ~ 15 (+) ; 17 (+) ~ 13 ; 
FONCE 34 ~ CLAIR 52 (+) = 13 ~ 13 ; 9 ~ 20 (+) ; 12 ~ 19 (+) ; 
FONCE 48 (+) ~ CLAIR 42 = 17 (+) ~ 14 ; 14 ~ 18 (+) ; 17 (+) ~ 10 ; 
FONCE 42 ~ CLAIR 46 (+) = 11 ~ 17 (+) ; 17 (+) ~ 14 ; 14 ~ 15 (+) ; 
FONCE 30 ~ CLAIR 38 (+) = 7 ~ 20 (+) ; 17 (+) ~ 13 ; 6 (+) ~ 5 ; 
FONCE 58 (+) ~ CLAIR 29 = 20 (+) ~ 9 ; 20 (+) ~ 7 ; 18 (+) ~ 13 ; 
FONCE 38 ~ CLAIR 41 (+) = 12 ~ 18 (+) ; 17 (+) ~ 13 ; 9 ~ 10 (+) ; 
FONCE 43 ~ CLAIR 47 (+) = 20 (+) ~ 10 ; 9 ~ 20 (+) ; 14 ~ 17 (+) ; 
FONCE 52 (+) ~ CLAIR 40 = 18 (+) ~ 12 ; 16 ~ 16 ; 18 (+) ~ 12 ; 
FONCE 32 ~ CLAIR 48 (+) = 13 ~ 18 (+) ; 13 ~ 19 (+) ; 6 ~ 11 (+) ; 
FONCE 43 (+) ~ CLAIR 29 = 16 (+) ~ 11 ; 15 (+) ~ 7 ; 12 (+) ~ 11 ; 
FONCE 39 ~ CLAIR 46 (+) = 11 ~ 18 (+) ; 13 ~ 17 (+) ; 15 (+) ~ 11 ; 
FONCE 35 ~ CLAIR 42 (+) = 13 (+) ~ 9 ; 13 ~ 14 (+) ; 9 ~ 19 (+) ; 
FONCE 42 ~ CLAIR 47 (+) = 11 ~ 20 (+) ; 16 (+) ~ 15 ; 15 (+) ~ 12 ; 
FONCE 36 ~ CLAIR 54 (+) = 12 ~ 19 (+) ; 11 ~ 18 (+) ; 13 ~ 17 (+) ; 
FONCE 36 ~ CLAIR 45 (+) = 8 ~ 20 (+) ; 14 (+) ~ 12 ; 14 (+) ~ 13 ; 
FONCE 40 ~ CLAIR 48 (+) = 17 (+) ~ 14 ; 8 ~ 20 (+) ; 15 (+) ~ 14 ; 
FONCE 49 (+) ~ CLAIR 42 = 17 (+) ~ 14 ; 20 (+) ~ 10 ; 12 ~ 18 (+) ; 
FONCE 47 (+) ~ CLAIR 45 = 17 (+) ~ 14 ; 14 ~ 16 (+) ; 16 (+) ~ 15 ; 
FONCE 46 (+) ~ CLAIR 40 = 15 (+) ~ 14 ; 20 (+) ~ 8 ; 11 ~ 18 (+) ; 
FONCE 48 (+) ~ CLAIR 36 = 20 (+) ~ 10 ; 20 (+) ~ 6 ; 8 ~ 20 (+) ; 
FONCE 40 ~ CLAIR 50 (+) = 9 ~ 20 (+) ; 13 ~ 17 (+) ; 18 (+) ~ 13 ; 
FONCE 42 ~ CLAIR 44 (+) = 13 ~ 18 (+) ; 15 (+) ~ 10 ; 14 ~ 16 (+) ; 
FONCE 45 (+) ~ CLAIR 35 = 13 (+) ~ 8 ; 16 (+) ~ 14 ; 16 (+) ~ 13 ; 
FONCE 21 ~ CLAIR 45 (+) = 13 (+) ~ 6 ; 8 ~ 19 (+) ; null ~ 20 (+) ; 
FONCE 31 ~ CLAIR 56 (+) = 12 ~ 17 (+) ; 11 ~ 19 (+) ; 8 ~ 20 (+) ; 
FONCE 55 (+) ~ CLAIR 37 = 20 (+) ~ 10 ; 18 (+) ~ 13 ; 17 (+) ~ 14 ; 
FONCE 30 ~ CLAIR 54 (+) = 8 ~ 20 (+) ; 12 ~ 18 (+) ; 10 ~ 16 (+) ; 
FONCE 47 (+) ~ CLAIR 39 = 20 (+) ~ 8 ; 14 ~ 17 (+) ; 13 ~ 14 (+) ; 
FONCE 29 ~ CLAIR 56 (+) = 8 ~ 17 (+) ; 14 ~ 19 (+) ; 7 ~ 20 (+) ; 
FONCE 39 ~ CLAIR 52 (+) = 16 (+) ~ 15 ; 14 ~ 17 (+) ; 9 ~ 20 (+) ; 
FONCE 47 (+) ~ CLAIR 44 = 12 ~ 19 (+) ; 15 ~ 15 ; 20 (+) ~ 10 ; 
FONCE 37 ~ CLAIR 48 (+) = 17 (+) ~ 15 ; 8 ~ 20 (+) ; 12 ~ 13 (+) ; 
FONCE 39 ~ CLAIR 52 (+) = 17 (+) ~ 14 ; 11 ~ 18 (+) ; 11 ~ 20 (+) ; 
FONCE 43 ~ CLAIR 47 (+) = 12 ~ 18 (+) ; 20 (+) ~ 11 ; 11 ~ 18 (+) ; 
FONCE 51 (+) ~ CLAIR 43 = 16 (+) ~ 15 ; 19 (+) ~ 10 ; 16 ~ 18 (+) ; 
FONCE 41 ~ CLAIR 50 (+) = 17 (+) ~ 13 ; 11 ~ 19 (+) ; 13 ~ 18 (+) ; 
FONCE 45 ~ CLAIR 46 (+) = 15 ~ 16 (+) ; 14 ~ 15 (+) ; 16 (+) ~ 15 ; 
FONCE 45 (+) ~ CLAIR 34 = 17 (+) ~ 14 ; 14 (+) ~ 10 ; 14 (+) ~ 10 ; 
FONCE 32 ~ CLAIR 53 (+) = 11 ~ 14 (+) ; 10 ~ 20 (+) ; 11 ~ 19 (+) ; 
FONCE 48 (+) ~ CLAIR 40 = 16 (+) ~ 14 ; 15 (+) ~ 12 ; 17 (+) ~ 14 ; 
FONCE 49 (+) ~ CLAIR 35 = 20 (+) ~ 10 ; 12 ~ 12 ; 17 (+) ~ 13 ; 
FONCE 44 (+) ~ CLAIR 40 = 13 ~ 19 (+) ; 11 ~ 13 (+) ; 20 (+) ~ 8 ; 
FONCE 44 ~ CLAIR 46 (+) = 20 (+) ~ 10 ; 11 ~ 19 (+) ; 13 ~ 17 (+) ; 
FONCE 48 (+) ~ CLAIR 37 = 12 ~ 12 ; 16 (+) ~ 15 ; 20 (+) ~ 10 ; 
FONCE 33 ~ CLAIR 50 (+) = 9 ~ 15 (+) ; 8 ~ 20 (+) ; 16 (+) ~ 15 ; 
FONCE 47 (+) ~ CLAIR 45 = 17 (+) ~ 14 ; 16 (+) ~ 14 ; 14 ~ 17 (+) ; 
FONCE 42 ~ CLAIR 47 (+) = 14 ~ 17 (+) ; 15 ~ 17 (+) ; 13 ~ 13 ; 
FONCE 55 (+) ~ CLAIR 37 = 20 (+) ~ 12 ; 19 (+) ~ 10 ; 16 (+) ~ 15 ; 
FONCE 46 ~ CLAIR 46 (+) = 14 ~ 16 (+) ; 17 (+) ~ 14 ; 15 ~ 16 (+) ; 
FONCE 53 (+) ~ CLAIR 33 = 18 (+) ~ 14 ; 15 (+) ~ 13 ; 20 (+) ~ 6 ; 
FONCE 34 ~ CLAIR 52 (+) = 11 ~ 15 (+) ; 14 ~ 17 (+) ; 9 ~ 20 (+) ; 
FONCE 34 ~ CLAIR 51 (+) = 10 ~ 19 (+) ; 8 ~ 20 (+) ; 16 (+) ~ 12 ; 
FONCE 40 ~ CLAIR 49 (+) = 16 (+) ~ 15 ; 16 (+) ~ 14 ; 8 ~ 20 (+) ; 
FONCE 44 ~ CLAIR 48 (+) = 13 ~ 18 (+) ; 15 ~ 16 (+) ; 16 (+) ~ 14 ; 
FONCE 58 (+) ~ CLAIR 27 = 19 (+) ~ 9 ; 19 (+) ~ 9 ; 20 (+) ~ 9 ; 
FONCE 40 (+) ~ CLAIR 40 = 17 (+) ~ 8 ; 5 ~ 20 (+) ; 18 (+) ~ 12 ; 
FONCE 52 (+) ~ CLAIR 42 = 15 ~ 17 (+) ; 19 (+) ~ 12 ; 18 (+) ~ 13 ; 
FONCE 14 ~ CLAIR 60 (+) = null ~ 20 (+) ; 5 ~ 20 (+) ; 9 ~ 20 (+) ; 
FONCE 48 (+) ~ CLAIR 36 = 12 ~ 13 (+) ; 18 (+) ~ 12 ; 18 (+) ~ 11 ; 
FONCE 42 ~ CLAIR 44 (+) = 11 ~ 13 (+) ; 12 ~ 19 (+) ; 19 (+) ~ 12 ; 
FONCE 39 ~ CLAIR 45 (+) = 14 ~ 17 (+) ; 14 ~ 17 (+) ; 11 ~ 11 ; 
FONCE 53 (+) ~ CLAIR 33 = 18 (+) ~ 9 ; 20 (+) ~ 10 ; 15 (+) ~ 14 ; 
FONCE 45 (+) ~ CLAIR 32 = 14 (+) ~ 11 ; 11 ~ 14 (+) ; 20 (+) ~ 7 ; 
FONCE 37 ~ CLAIR 44 (+) = null ~ 20 (+) ; 20 (+) ~ 11 ; 17 (+) ~ 13 ; 
FONCE 48 (+) ~ CLAIR 33 = 17 (+) ~ 12 ; 16 (+) ~ 11 ; 15 (+) ~ 10 ; 
FONCE 49 (+) ~ CLAIR 43 = 18 (+) ~ 14 ; 20 (+) ~ 10 ; 11 ~ 19 (+) ; 
FONCE 50 (+) ~ CLAIR 35 = 16 (+) ~ 15 ; 17 (+) ~ 10 ; 17 (+) ~ 10 ; 
FONCE 42 ~ CLAIR 49 (+) = 12 ~ 20 (+) ; 14 (+) ~ 13 ; 16 ~ 16 ; 
FONCE 39 ~ CLAIR 51 (+) = 16 (+) ~ 14 ; 12 ~ 19 (+) ; 11 ~ 18 (+) ; 
FONCE 35 ~ CLAIR 46 (+) = 6 ~ 20 (+) ; 16 (+) ~ 15 ; 13 (+) ~ 11 ; 
FONCE 50 (+) ~ CLAIR 39 = 20 (+) ~ 10 ; 15 ~ 15 ; 15 (+) ~ 14 ; 
FONCE 49 (+) ~ CLAIR 45 = 17 (+) ~ 14 ; 18 (+) ~ 13 ; 14 ~ 18 (+) ; 
FONCE 51 (+) ~ CLAIR 33 = 18 (+) ~ 11 ; 19 (+) ~ 11 ; 14 (+) ~ 11 ; 
FONCE 37 ~ CLAIR 47 (+) = 12 ~ 16 (+) ; 11 ~ 14 (+) ; 14 ~ 17 (+) ; 
FONCE 36 ~ CLAIR 48 (+) = 9 ~ 20 (+) ; 15 (+) ~ 14 ; 12 ~ 14 (+) ; 
FONCE 51 (+) ~ CLAIR 38 = 15 ~ 16 (+) ; 16 (+) ~ 12 ; 20 (+) ~ 10 ; 
FONCE 39 ~ CLAIR 42 (+) = 16 (+) ~ 14 ; 11 ~ 15 (+) ; 12 ~ 13 (+) ; 
FONCE 30 ~ CLAIR 43 (+) = 12 ~ 15 (+) ; 6 ~ 8 (+) ; 12 ~ 20 (+) ; 
FONCE 41 ~ CLAIR 50 (+) = 15 (+) ~ 14 ; 13 ~ 18 (+) ; 13 ~ 18 (+) ; 
FONCE 42 ~ CLAIR 48 (+) = 13 ~ 15 (+) ; 11 ~ 20 (+) ; 18 (+) ~ 13 ; 
FONCE 34 ~ CLAIR 42 (+) = 11 ~ 11 ; 20 (+) ~ 11 ; 3 ~ 20 (+) ; 
FONCE 48 (+) ~ CLAIR 38 = 15 ~ 15 ; 18 (+) ~ 11 ; 15 (+) ~ 12 ; 
FONCE 45 (+) ~ CLAIR 44 = 13 ~ 17 (+) ; 17 (+) ~ 11 ; 15 ~ 16 (+) ; 
FONCE 40 (+) ~ CLAIR 39 = 16 (+) ~ 15 ; 11 (+) ~ 10 ; 13 ~ 14 (+) ; 
FONCE 44 ~ CLAIR 51 (+) = 16 (+) ~ 15 ; 12 ~ 18 (+) ; 16 ~ 18 (+) ; 
FONCE 46 (+) ~ CLAIR 41 = 20 (+) ~ 10 ; 19 (+) ~ 12 ; 7 ~ 19 (+) ; 
FONCE 37 ~ CLAIR 48 (+) = 12 ~ 16 (+) ; 18 (+) ~ 12 ; 7 ~ 20 (+) ; 
FONCE 44 (+) ~ CLAIR 43 = 17 (+) ~ 13 ; 11 ~ 18 (+) ; 16 (+) ~ 12 ; 
FONCE 40 ~ CLAIR 45 (+) = 11 ~ 13 (+) ; 13 ~ 17 (+) ; 16 (+) ~ 15 ; 
FONCE 34 ~ CLAIR 51 (+) = 8 ~ 20 (+) ; 11 ~ 13 (+) ; 15 ~ 18 (+) ; 
FONCE 38 ~ CLAIR 43 (+) = 11 (+) ~ 8 ; 16 (+) ~ 15 ; 11 ~ 20 (+) ; 
FONCE 44 (+) ~ CLAIR 42 = 15 (+) ~ 14 ; 13 ~ 13 ; 16 (+) ~ 15 ; 
FONCE 51 (+) ~ CLAIR 33 = 20 (+) ~ 11 ; 20 (+) ~ 6 ; 11 ~ 16 (+) ; 
FONCE 38 ~ CLAIR 48 (+) = 18 (+) ~ 13 ; 14 ~ 15 (+) ; 6 ~ 20 (+) ; 
FONCE 52 (+) ~ CLAIR 42 = 15 ~ 17 (+) ; 19 (+) ~ 12 ; 18 (+) ~ 13 ; 
FONCE 34 ~ CLAIR 50 (+) = 13 ~ 19 (+) ; 8 ~ 20 (+) ; 13 (+) ~ 11 ; 
FONCE 44 ~ CLAIR 47 (+) = 15 ~ 16 (+) ; 15 ~ 15 ; 14 ~ 16 (+) ; 
FONCE 44 (+) ~ CLAIR 41 = 20 (+) ~ 10 ; 8 ~ 14 (+) ; 16 ~ 17 (+) ; 
FONCE 48 (+) ~ CLAIR 35 = 13 (+) ~ 9 ; 15 (+) ~ 14 ; 20 (+) ~ 12 ; 
FONCE 47 (+) ~ CLAIR 39 = 14 ~ 14 ; 19 (+) ~ 10 ; 14 ~ 15 (+) ; 
FONCE 34 ~ CLAIR 45 (+) = 5 ~ 20 (+) ; 12 ~ 12 ; 17 (+) ~ 13 ; 
FONCE 45 ~ CLAIR 47 (+) = 14 ~ 17 (+) ; 18 (+) ~ 13 ; 13 ~ 17 (+) ; 
FONCE 41 ~ CLAIR 42 (+) = 13 ~ 18 (+) ; 15 (+) ~ 13 ; 13 (+) ~ 11 ; 
FONCE 51 (+) ~ CLAIR 40 = 19 (+) ~ 12 ; 16 (+) ~ 11 ; 16 ~ 17 (+) ; 
FONCE 50 (+) ~ CLAIR 40 = 15 (+) ~ 11 ; 17 (+) ~ 16 ; 18 (+) ~ 13 ; 
FONCE 40 ~ CLAIR 45 (+) = 11 ~ 19 (+) ; 16 (+) ~ 11 ; 13 ~ 15 (+) ; 
FONCE 45 ~ CLAIR 50 (+) = 13 ~ 19 (+) ; 17 (+) ~ 14 ; 15 ~ 17 (+) ; 
FONCE 47 (+) ~ CLAIR 43 = 19 (+) ~ 12 ; 13 ~ 18 (+) ; 15 (+) ~ 13 ; 
FONCE 55 (+) ~ CLAIR 37 = 20 (+) ~ 10 ; 15 ~ 16 (+) ; 20 (+) ~ 11 ; 
FONCE 35 ~ CLAIR 43 (+) = 18 (+) ~ 13 ; 3 ~ 14 (+) ; 14 ~ 16 (+) ; 
FONCE 40 ~ CLAIR 45 (+) = 8 ~ 20 (+) ; 12 ~ 15 (+) ; 20 (+) ~ 10 ; 
FONCE 55 (+) ~ CLAIR 31 = 16 (+) ~ 12 ; 20 (+) ~ 9 ; 19 (+) ~ 10 ; 
FONCE 41 ~ CLAIR 45 (+) = 16 (+) ~ 10 ; 14 ~ 16 (+) ; 11 ~ 19 (+) ; 
FONCE 47 (+) ~ CLAIR 40 = 14 ~ 17 (+) ; 13 ~ 14 (+) ; 20 (+) ~ 9 ; 
FONCE 46 (+) ~ CLAIR 45 = 15 ~ 16 (+) ; 19 (+) ~ 12 ; 12 ~ 17 (+) ; 
FONCE 48 (+) ~ CLAIR 42 = 12 ~ 16 (+) ; 16 (+) ~ 14 ; 20 (+) ~ 12 ; 
FONCE 39 ~ CLAIR 48 (+) = 12 ~ 18 (+) ; 18 (+) ~ 13 ; 9 ~ 17 (+) ; 
FONCE 48 (+) ~ CLAIR 36 = 15 (+) ~ 10 ; 17 (+) ~ 13 ; 16 (+) ~ 13 ; 
FONCE 51 (+) ~ CLAIR 40 = 19 (+) ~ 11 ; 16 (+) ~ 15 ; 16 (+) ~ 14 ; 
FONCE 47 (+) ~ CLAIR 45 = 15 ~ 16 (+) ; 19 (+) ~ 11 ; 13 ~ 18 (+) ; 
FONCE 46 (+) ~ CLAIR 40 = 14 (+) ~ 11 ; 20 (+) ~ 10 ; 12 ~ 19 (+) ; 
FONCE 42 (+) ~ CLAIR 40 = 17 (+) ~ 14 ; 13 (+) ~ 10 ; 12 ~ 16 (+) ; 
FONCE 41 ~ CLAIR 43 (+) = 14 (+) ~ 10 ; 15 ~ 16 (+) ; 12 ~ 17 (+) ; 
FONCE 52 (+) ~ CLAIR 36 = 20 (+) ~ 8 ; 20 (+) ~ 9 ; 12 ~ 19 (+) ; 
FONCE 48 (+) ~ CLAIR 42 = 19 (+) ~ 12 ; 13 ~ 16 (+) ; 16 (+) ~ 14 ; 
FONCE 35 ~ CLAIR 40 (+) = 13 (+) ~ 11 ; 9 ~ 20 (+) ; 13 (+) ~ 9 ; 
FONCE 42 ~ CLAIR 48 (+) = 17 (+) ~ 13 ; 16 (+) ~ 15 ; 9 ~ 20 (+) ; 
FONCE 33 ~ CLAIR 44 (+) = 9 ~ 20 (+) ; 13 (+) ~ 12 ; 11 ~ 12 (+) ; 
FONCE 44 (+) ~ CLAIR 40 = 12 ~ 13 (+) ; 20 (+) ~ 8 ; 12 ~ 19 (+) ; 
FONCE 41 ~ CLAIR 51 (+) = 11 ~ 20 (+) ; 14 ~ 16 (+) ; 16 (+) ~ 15 ; 
FONCE 48 (+) ~ CLAIR 40 = 18 (+) ~ 10 ; 14 ~ 16 (+) ; 16 (+) ~ 14 ; 
FONCE 32 ~ CLAIR 49 (+) = 9 ~ 16 (+) ; 14 (+) ~ 13 ; 9 ~ 20 (+) ; 
FONCE 49 (+) ~ CLAIR 40 = 13 ~ 18 (+) ; 16 (+) ~ 14 ; 20 (+) ~ 8 ; 
FONCE 43 (+) ~ CLAIR 39 = 20 (+) ~ 11 ; 11 (+) ~ 10 ; 12 ~ 18 (+) ; 
FONCE 42 ~ CLAIR 43 (+) = 15 (+) ~ 14 ; 16 (+) ~ 14 ; 11 ~ 15 (+) ; 
FONCE 42 ~ CLAIR 52 (+) = 13 ~ 18 (+) ; 15 ~ 16 (+) ; 14 ~ 18 (+) ; 
FONCE 40 ~ CLAIR 49 (+) = 13 ~ 18 (+) ; 13 ~ 16 (+) ; 14 ~ 15 (+) ; 
FONCE 23 ~ CLAIR 57 (+) = null ~ 20 (+) ; 11 ~ 19 (+) ; 12 ~ 18 (+) ; 
FONCE 46 (+) ~ CLAIR 33 = 13 (+) ~ 11 ; 13 ~ 14 (+) ; 20 (+) ~ 8 ; 
FONCE 43 ~ CLAIR 46 (+) = 13 ~ 16 (+) ; 16 (+) ~ 13 ; 14 ~ 17 (+) ; 
FONCE 49 (+) ~ CLAIR 30 = 17 (+) ~ 13 ; 20 (+) ~ 4 ; 12 ~ 13 (+) ; 
FONCE 46 (+) ~ CLAIR 45 = 10 ~ 19 (+) ; 18 (+) ~ 12 ; 18 (+) ~ 14 ; 
FONCE 35 ~ CLAIR 45 (+) = 9 ~ 20 (+) ; 11 ~ 16 (+) ; 15 (+) ~ 9 ; 
FONCE 45 ~ CLAIR 46 (+) = 18 (+) ~ 13 ; 15 (+) ~ 13 ; 12 ~ 20 (+) ; 
FONCE 43 ~ CLAIR 45 (+) = 18 (+) ~ 13 ; 12 ~ 16 (+) ; 13 ~ 16 (+) ; 
FONCE 49 (+) ~ CLAIR 30 = 18 (+) ~ 12 ; 20 (+) ~ 8 ; 11 (+) ~ 10 ; 
FONCE 47 (+) ~ CLAIR 43 = 20 (+) ~ 7 ; 12 ~ 19 (+) ; 15 ~ 17 (+) ; 
FONCE 41 ~ CLAIR 47 (+) = 8 ~ 19 (+) ; 16 (+) ~ 14 ; 17 (+) ~ 14 ; 
FONCE 40 ~ CLAIR 48 (+) = 13 ~ 15 (+) ; 17 (+) ~ 13 ; 10 ~ 20 (+) ; 
FONCE 46 (+) ~ CLAIR 41 = 14 ~ 14 ; 18 (+) ~ 14 ; 14 (+) ~ 13 ; 
FONCE 39 ~ CLAIR 47 (+) = 13 ~ 15 (+) ; 11 ~ 20 (+) ; 15 (+) ~ 12 ; 
FONCE 40 (+) ~ CLAIR 39 = 11 ~ 16 (+) ; 16 (+) ~ 15 ; 13 (+) ~ 8 ; 
FONCE 52 (+) ~ CLAIR 37 = 20 (+) ~ 9 ; 15 ~ 18 (+) ; 17 (+) ~ 10 ; 
FONCE 47 (+) ~ CLAIR 41 = 18 (+) ~ 12 ; 15 (+) ~ 13 ; 14 ~ 16 (+) ; 
FONCE 55 (+) ~ CLAIR 34 = 20 (+) ~ 10 ; 17 (+) ~ 11 ; 18 (+) ~ 13 ; 
FONCE 42 ~ CLAIR 52 (+) = 11 ~ 20 (+) ; 16 (+) ~ 15 ; 15 ~ 17 (+) ; 
FONCE 47 (+) ~ CLAIR 45 = 14 ~ 19 (+) ; 18 (+) ~ 13 ; 15 (+) ~ 13 ; 
FONCE 46 (+) ~ CLAIR 44 = 16 (+) ~ 12 ; 14 ~ 17 (+) ; 16 (+) ~ 15 ; 
FONCE 51 (+) ~ CLAIR 40 = 15 ~ 17 (+) ; 16 (+) ~ 14 ; 20 (+) ~ 9 ; 
FONCE 48 (+) ~ CLAIR 40 = 17 (+) ~ 13 ; 15 ~ 15 ; 16 (+) ~ 12 ; 
FONCE 52 (+) ~ CLAIR 33 = 13 ~ 14 (+) ; 20 (+) ~ 6 ; 19 (+) ~ 13 ; 
FONCE 39 ~ CLAIR 52 (+) = 14 ~ 17 (+) ; 16 (+) ~ 15 ; 9 ~ 20 (+) ; 
FONCE 47 (+) ~ CLAIR 37 = 12 ~ 13 (+) ; 15 ~ 16 (+) ; 20 (+) ~ 8 ; 
FONCE 52 (+) ~ CLAIR 38 = 17 (+) ~ 13 ; 15 ~ 16 (+) ; 20 (+) ~ 9 ; 
FONCE 52 (+) ~ CLAIR 37 = 16 (+) ~ 15 ; 20 (+) ~ 9 ; 16 (+) ~ 13 ; 
FONCE 42 ~ CLAIR 47 (+) = 13 ~ 15 (+) ; 15 ~ 15 ; 14 ~ 17 (+) ; 
FONCE 37 ~ CLAIR 47 (+) = 19 (+) ~ 11 ; 8 ~ 16 (+) ; 10 ~ 20 (+) ; 
FONCE 49 (+) ~ CLAIR 44 = 18 (+) ~ 13 ; 17 (+) ~ 13 ; 14 ~ 18 (+) ; 
FONCE 46 (+) ~ CLAIR 44 = 16 (+) ~ 15 ; 14 ~ 14 ; 16 (+) ~ 15 ; 
FONCE 37 ~ CLAIR 51 (+) = 14 ~ 16 (+) ; 8 ~ 20 (+) ; 15 ~ 15 ; 
FONCE 54 (+) ~ CLAIR 38 = 17 (+) ~ 14 ; 19 (+) ~ 11 ; 18 (+) ~ 13 ; 
FONCE 45 (+) ~ CLAIR 42 = 11 ~ 15 (+) ; 20 (+) ~ 11 ; 14 ~ 16 (+) ; 
FONCE 43 ~ CLAIR 49 (+) = 13 ~ 20 (+) ; 17 (+) ~ 13 ; 13 ~ 16 (+) ; 
FONCE 45 (+) ~ CLAIR 40 = 16 (+) ~ 15 ; 14 ~ 14 ; 15 (+) ~ 11 ; 
FONCE 41 ~ CLAIR 44 (+) = 12 ~ 20 (+) ; 13 (+) ~ 9 ; 16 (+) ~ 15 ; 
FONCE 44 (+) ~ CLAIR 43 = 15 ~ 15 ; 11 ~ 15 (+) ; 18 (+) ~ 13 ; 
FONCE 45 (+) ~ CLAIR 43 = 12 ~ 17 (+) ; 20 (+) ~ 8 ; 13 ~ 18 (+) ; 
FONCE 47 (+) ~ CLAIR 45 = 18 (+) ~ 13 ; 17 (+) ~ 13 ; 12 ~ 19 (+) ; 
FONCE 33 ~ CLAIR 58 (+) = 12 ~ 19 (+) ; 10 ~ 20 (+) ; 11 ~ 19 (+) ; 
FONCE 42 ~ CLAIR 44 (+) = 15 ~ 15 ; 15 (+) ~ 14 ; 12 ~ 15 (+) ; 
FONCE 48 (+) ~ CLAIR 43 = 12 ~ 19 (+) ; 16 (+) ~ 14 ; 20 (+) ~ 10 ; 
FONCE 41 ~ CLAIR 49 (+) = 14 ~ 15 (+) ; 16 (+) ~ 14 ; 11 ~ 20 (+) ; 
FONCE 37 ~ CLAIR 48 (+) = 4 ~ 20 (+) ; 16 (+) ~ 15 ; 17 (+) ~ 13 ; 
FONCE 48 (+) ~ CLAIR 43 = 16 (+) ~ 15 ; 15 ~ 16 (+) ; 17 (+) ~ 12 ; 
FONCE 34 ~ CLAIR 53 (+) = 15 ~ 16 (+) ; 6 ~ 20 (+) ; 13 ~ 17 (+) ; 
FONCE 46 ~ CLAIR 46 = 15 ~ 15 ; 15 ~ 16 (+) ; 16 (+) ~ 15 ; 
FONCE 47 (+) ~ CLAIR 43 = 16 (+) ~ 14 ; 15 ~ 15 ; 16 (+) ~ 14 ; 
FONCE 40 ~ CLAIR 42 (+) = 14 ~ 17 (+) ; 7 ~ 17 (+) ; 19 (+) ~ 8 ; 
FONCE 45 (+) ~ CLAIR 42 = 17 (+) ~ 13 ; 12 ~ 18 (+) ; 16 (+) ~ 11 ; 
FONCE 40 ~ CLAIR 48 (+) = 13 ~ 18 (+) ; 11 ~ 15 (+) ; 16 (+) ~ 15 ; 
FONCE 36 ~ CLAIR 54 (+) = 10 ~ 20 (+) ; 8 ~ 20 (+) ; 18 (+) ~ 14 ; 
FONCE 52 (+) ~ CLAIR 36 = 18 (+) ~ 12 ; 14 ~ 16 (+) ; 20 (+) ~ 8 ; 
FONCE 36 ~ CLAIR 55 (+) = 12 ~ 20 (+) ; 10 ~ 20 (+) ; 14 ~ 15 (+) ; 
FONCE 51 (+) ~ CLAIR 38 = 14 ~ 14 ; 20 (+) ~ 9 ; 17 (+) ~ 15 ; 
FONCE 42 ~ CLAIR 47 (+) = 11 ~ 15 (+) ; 16 (+) ~ 14 ; 15 ~ 18 (+) ; 
FONCE 39 ~ CLAIR 49 (+) = 15 (+) ~ 14 ; 18 (+) ~ 15 ; 6 ~ 20 (+) ; 
FONCE 47 (+) ~ CLAIR 43 = 20 (+) ~ 10 ; 10 ~ 19 (+) ; 17 (+) ~ 14 ; 
FONCE 52 (+) ~ CLAIR 38 = 17 (+) ~ 14 ; 19 (+) ~ 9 ; 16 (+) ~ 15 ; 
FONCE 45 (+) ~ CLAIR 43 = 18 (+) ~ 12 ; 10 ~ 20 (+) ; 17 (+) ~ 11 ; 
FONCE 43 ~ CLAIR 46 (+) = 14 ~ 14 ; 13 ~ 18 (+) ; 16 (+) ~ 14 ; 
FONCE 45 (+) ~ CLAIR 44 = 17 (+) ~ 12 ; 13 ~ 14 (+) ; 15 ~ 18 (+) ; 
FONCE 39 ~ CLAIR 48 (+) = 16 (+) ~ 14 ; 9 ~ 20 (+) ; 14 ~ 14 ; 
FONCE 46 (+) ~ CLAIR 42 = 13 ~ 14 (+) ; 13 ~ 17 (+) ; 20 (+) ~ 11 ; 
FONCE 47 (+) ~ CLAIR 40 = 20 (+) ~ 6 ; 10 ~ 19 (+) ; 17 (+) ~ 15 ; 
FONCE 42 ~ CLAIR 46 (+) = 14 ~ 16 (+) ; 15 (+) ~ 14 ; 13 ~ 16 (+) ; 
FONCE 42 ~ CLAIR 43 (+) = 14 ~ 15 (+) ; 16 (+) ~ 12 ; 12 ~ 16 (+) ; 
FONCE 45 ~ CLAIR 45 (+) = 15 ~ 16 (+) ; 15 ~ 17 (+) ; 15 (+) ~ 12 ; 
FONCE 48 (+) ~ CLAIR 31 = 20 (+) ~ 9 ; 18 (+) ~ 11 ; 10 ~ 11 (+) ; 
FONCE 46 (+) ~ CLAIR 45 = 17 (+) ~ 14 ; 9 ~ 20 (+) ; 20 (+) ~ 11 ; 
FONCE 39 ~ CLAIR 48 (+) = 14 (+) ~ 13 ; 12 ~ 20 (+) ; 13 ~ 15 (+) ; 
FONCE 31 ~ CLAIR 48 (+) = 5 ~ 11 (+) ; 11 ~ 20 (+) ; 15 ~ 17 (+) ; 
FONCE 19 ~ CLAIR 58 (+) = 8 ~ 20 (+) ; 11 ~ 20 (+) ; null ~ 18 (+) ; 
FONCE 45 (+) ~ CLAIR 44 = 17 (+) ~ 14 ; 13 (+) ~ 12 ; 15 ~ 18 (+) ; 
FONCE 44 (+) ~ CLAIR 42 = 12 ~ 19 (+) ; 16 (+) ~ 9 ; 16 (+) ~ 14 ; 
FONCE 30 ~ CLAIR 43 (+) = 7 ~ 20 (+) ; 10 ~ 11 (+) ; 13 (+) ~ 12 ; 
FONCE 44 (+) ~ CLAIR 40 = 11 ~ 14 (+) ; 20 (+) ~ 7 ; 13 ~ 19 (+) ; 
FONCE 49 (+) ~ CLAIR 43 = 12 ~ 19 (+) ; 17 (+) ~ 14 ; 20 (+) ~ 10 ; 
FONCE 56 (+) ~ CLAIR 34 = 17 (+) ~ 14 ; 19 (+) ~ 10 ; 20 (+) ~ 10 ; 
FONCE 55 (+) ~ CLAIR 33 = 20 (+) ~ 10 ; 16 (+) ~ 15 ; 19 (+) ~ 8 ; 
FONCE 52 (+) ~ CLAIR 37 = 16 (+) ~ 15 ; 16 (+) ~ 13 ; 20 (+) ~ 9 ; 
FONCE 40 (+) ~ CLAIR 40 = 14 (+) ~ 8 ; 16 (+) ~ 12 ; 10 ~ 20 (+) ; 
FONCE 54 (+) ~ CLAIR 37 = 18 (+) ~ 11 ; 18 (+) ~ 13 ; 18 (+) ~ 13 ; 
FONCE 43 ~ CLAIR 46 (+) = 20 (+) ~ 8 ; 15 ~ 18 (+) ; 8 ~ 20 (+) ; 
FONCE 45 ~ CLAIR 48 (+) = 17 (+) ~ 13 ; 16 ~ 16 ; 12 ~ 19 (+) ; 
FONCE 37 ~ CLAIR 44 (+) = 13 (+) ~ 12 ; 7 ~ 20 (+) ; 17 (+) ~ 12 ; 
FONCE 40 ~ CLAIR 49 (+) = 17 (+) ~ 14 ; 9 ~ 17 (+) ; 14 ~ 18 (+) ; 
FONCE 39 ~ CLAIR 49 (+) = 10 ~ 20 (+) ; 11 ~ 16 (+) ; 18 (+) ~ 13 ; 
FONCE 38 ~ CLAIR 45 (+) = 15 (+) ~ 14 ; 11 ~ 18 (+) ; 12 ~ 13 (+) ; 
FONCE 40 ~ CLAIR 44 (+) = 13 ~ 18 (+) ; 12 ~ 12 ; 15 (+) ~ 14 ; 
FONCE 34 ~ CLAIR 48 (+) = 17 (+) ~ 13 ; 17 (+) ~ 15 ; null ~ 20 (+) ; 
FONCE 45 (+) ~ CLAIR 44 = 11 ~ 16 (+) ; 19 (+) ~ 10 ; 15 ~ 18 (+) ; 
FONCE 42 ~ CLAIR 46 (+) = 14 ~ 19 (+) ; 14 (+) ~ 10 ; 14 ~ 17 (+) ; 
FONCE 47 (+) ~ CLAIR 36 = 13 ~ 17 (+) ; 20 (+) ~ 7 ; 14 (+) ~ 12 ; 
FONCE 51 (+) ~ CLAIR 40 = 16 (+) ~ 15 ; 16 (+) ~ 14 ; 19 (+) ~ 11 ; 
FONCE 42 (+) ~ CLAIR 38 = 16 (+) ~ 15 ; 12 (+) ~ 10 ; 14 (+) ~ 13 ; 
FONCE 49 (+) ~ CLAIR 39 = 10 ~ 16 (+) ; 20 (+) ~ 9 ; 19 (+) ~ 14 ; 
FONCE 49 (+) ~ CLAIR 35 = 16 (+) ~ 15 ; 20 (+) ~ 8 ; 13 (+) ~ 12 ; 
FONCE 49 (+) ~ CLAIR 37 = 20 (+) ~ 5 ; 14 ~ 16 (+) ; 15 ~ 16 (+) ; 
FONCE 46 (+) ~ CLAIR 41 = 20 (+) ~ 9 ; 9 ~ 18 (+) ; 17 (+) ~ 14 ; 
FONCE 35 ~ CLAIR 58 (+) = 9 ~ 20 (+) ; 14 ~ 18 (+) ; 12 ~ 20 (+) ; 
FONCE 46 (+) ~ CLAIR 46 = 16 (+) ~ 15 ; 20 (+) ~ 11 ; 10 ~ 20 (+) ; 
FONCE 30 ~ CLAIR 57 (+) = 14 ~ 17 (+) ; 7 ~ 20 (+) ; 9 ~ 20 (+) ; 
FONCE 45 (+) ~ CLAIR 45 = 13 ~ 18 (+) ; 17 (+) ~ 13 ; 15 (+) ~ 14 ; 
FONCE 60 (+) ~ CLAIR 30 = 20 (+) ~ 11 ; 20 (+) ~ 11 ; 20 (+) ~ 8 ; 
FONCE 26 ~ CLAIR 57 (+) = 13 ~ 17 (+) ; 7 ~ 20 (+) ; 6 ~ 20 (+) ; 
FONCE 41 (+) ~ CLAIR 40 = 15 ~ 15 ; 20 (+) ~ 6 ; 6 ~ 19 (+) ; 
FONCE 47 (+) ~ CLAIR 40 = 20 (+) ~ 9 ; 14 ~ 15 (+) ; 13 ~ 16 (+) ; 
FONCE 32 ~ CLAIR 55 (+) = 11 ~ 18 (+) ; 7 ~ 20 (+) ; 14 ~ 17 (+) ; 
FONCE 50 (+) ~ CLAIR 33 = 15 (+) ~ 13 ; 15 (+) ~ 13 ; 20 (+) ~ 7 ; 
FONCE 46 (+) ~ CLAIR 40 = 20 (+) ~ 10 ; 8 ~ 20 (+) ; 18 (+) ~ 10 ; 
FONCE 36 ~ CLAIR 36 (+) = 18 (+) ~ 12 ; 5 ~ 7 (+) ; 13 ~ 17 (+) ; 
FONCE 43 (+) ~ CLAIR 40 = 17 (+) ~ 14 ; 15 (+) ~ 14 ; 11 ~ 12 (+) ; 
FONCE 40 ~ CLAIR 49 (+) = 12 ~ 14 (+) ; 14 ~ 18 (+) ; 14 ~ 17 (+) ; 
FONCE 56 (+) ~ CLAIR 31 = 19 (+) ~ 10 ; 20 (+) ~ 8 ; 17 (+) ~ 13 ; 
FONCE 39 ~ CLAIR 51 (+) = 12 ~ 20 (+) ; 12 ~ 19 (+) ; 15 (+) ~ 12 ; 
FONCE 54 (+) ~ CLAIR 29 = 20 (+) ~ 7 ; 14 ~ 14 ; 20 (+) ~ 8 ; 
FONCE 45 (+) ~ CLAIR 43 = 12 ~ 17 (+) ; 13 ~ 18 (+) ; 20 (+) ~ 8 ; 
FONCE 56 (+) ~ CLAIR 30 = 19 (+) ~ 12 ; 17 (+) ~ 9 ; 20 (+) ~ 9 ; 
FONCE 38 ~ CLAIR 47 (+) = 7 ~ 20 (+) ; 16 (+) ~ 15 ; 15 (+) ~ 12 ; 
FONCE 39 ~ CLAIR 53 (+) = 14 ~ 17 (+) ; 11 ~ 20 (+) ; 14 ~ 16 (+) ; 
FONCE 37 ~ CLAIR 38 (+) = 12 ~ 15 (+) ; 7 ~ 11 (+) ; 18 (+) ~ 12 ; 
FONCE 56 (+) ~ CLAIR 33 = 20 (+) ~ 11 ; 19 (+) ~ 9 ; 17 (+) ~ 13 ; 
FONCE 41 (+) ~ CLAIR 37 = 13 (+) ~ 8 ; 15 (+) ~ 14 ; 13 ~ 15 (+) ; 
FONCE 44 (+) ~ CLAIR 39 = 15 ~ 15 ; 9 ~ 11 (+) ; 20 (+) ~ 13 ; 
FONCE 37 ~ CLAIR 55 (+) = 11 ~ 20 (+) ; 15 ~ 16 (+) ; 11 ~ 19 (+) ; 
FONCE 44 (+) ~ CLAIR 40 = 14 (+) ~ 12 ; 15 (+) ~ 14 ; 15 (+) ~ 14 ; 
FONCE 45 (+) ~ CLAIR 44 = 13 ~ 14 (+) ; 12 ~ 19 (+) ; 20 (+) ~ 11 ; 
FONCE 45 ~ CLAIR 45 (+) = 20 (+) ~ 9 ; 15 ~ 16 (+) ; 10 ~ 20 (+) ; 
FONCE 31 ~ CLAIR 51 (+) = 11 ~ 18 (+) ; 9 ~ 13 (+) ; 11 ~ 20 (+) ; 
FONCE 42 (+) ~ CLAIR 37 = 16 (+) ~ 12 ; 12 ~ 15 (+) ; 14 (+) ~ 10 ; 
FONCE 44 (+) ~ CLAIR 37 = 14 ~ 17 (+) ; 10 ~ 10 ; 20 (+) ~ 10 ; 
FONCE 47 (+) ~ CLAIR 40 = 14 ~ 17 (+) ; 20 (+) ~ 7 ; 13 ~ 16 (+) ; 
FONCE 44 (+) ~ CLAIR 42 = 18 (+) ~ 10 ; 13 ~ 16 (+) ; 13 ~ 16 (+) ; 
FONCE 37 ~ CLAIR 51 (+) = 16 ~ 17 (+) ; 5 ~ 20 (+) ; 16 (+) ~ 14 ; 
FONCE 37 ~ CLAIR 43 (+) = 13 ~ 16 (+) ; 14 ~ 16 (+) ; 10 ~ 11 (+) ; 
FONCE 46 ~ CLAIR 47 (+) = 11 ~ 20 (+) ; 16 (+) ~ 15 ; 19 (+) ~ 12 ; 
FONCE 34 ~ CLAIR 56 (+) = 10 ~ 20 (+) ; 10 ~ 19 (+) ; 14 ~ 17 (+) ; 
FONCE 50 (+) ~ CLAIR 35 = 15 ~ 16 (+) ; 20 (+) ~ 7 ; 15 (+) ~ 12 ; 
FONCE 38 ~ CLAIR 45 (+) = 14 ~ 17 (+) ; 12 ~ 17 (+) ; 12 (+) ~ 11 ; 
FONCE 42 (+) ~ CLAIR 39 = 6 ~ 16 (+) ; 20 (+) ~ 10 ; 16 (+) ~ 13 ; 
FONCE 47 (+) ~ CLAIR 43 = 20 (+) ~ 9 ; 11 ~ 20 (+) ; 16 (+) ~ 14 ; 
FONCE 19 ~ CLAIR 53 (+) = 7 ~ 20 (+) ; 12 ~ 13 (+) ; null ~ 20 (+) ; 
FONCE 46 (+) ~ CLAIR 45 = 15 ~ 15 ; 16 ~ 17 (+) ; 15 (+) ~ 13 ; 
FONCE 44 (+) ~ CLAIR 44 = 16 (+) ~ 12 ; 15 (+) ~ 14 ; 13 ~ 18 (+) ; 
FONCE 53 (+) ~ CLAIR 32 = 17 (+) ~ 9 ; 19 (+) ~ 10 ; 17 (+) ~ 13 ; 
FONCE 54 (+) ~ CLAIR 29 = 15 (+) ~ 13 ; 20 (+) ~ 7 ; 19 (+) ~ 9 ; 
FONCE 42 ~ CLAIR 45 (+) = 11 ~ 17 (+) ; 20 (+) ~ 8 ; 11 ~ 20 (+) ; 
FONCE 41 ~ CLAIR 51 (+) = 15 ~ 15 ; 11 ~ 20 (+) ; 15 ~ 16 (+) ; 
FONCE 49 (+) ~ CLAIR 42 = 16 (+) ~ 14 ; 20 (+) ~ 9 ; 13 ~ 19 (+) ; 
FONCE 45 (+) ~ CLAIR 26 = 20 (+) ~ 5 ; 13 (+) ~ 10 ; 12 (+) ~ 11 ; 
FONCE 32 ~ CLAIR 48 (+) = 13 ~ 16 (+) ; 9 ~ 14 (+) ; 10 ~ 18 (+) ; 
FONCE 39 ~ CLAIR 49 (+) = 10 ~ 20 (+) ; 20 (+) ~ 9 ; 9 ~ 20 (+) ; 
FONCE 39 (+) ~ CLAIR 39 = 12 (+) ~ 9 ; 18 (+) ~ 11 ; 9 ~ 19 (+) ; 
FONCE 48 (+) ~ CLAIR 47 = 16 (+) ~ 14 ; 16 ~ 16 ; 16 ~ 17 (+) ; 
FONCE 42 ~ CLAIR 49 (+) = 9 ~ 20 (+) ; 19 (+) ~ 13 ; 14 ~ 16 (+) ; 
FONCE 49 (+) ~ CLAIR 41 = 20 (+) ~ 9 ; 20 (+) ~ 12 ; 9 ~ 20 (+) ; 
FONCE 45 (+) ~ CLAIR 39 = 13 (+) ~ 9 ; 16 (+) ~ 15 ; 16 (+) ~ 15 ; 
FONCE 41 ~ CLAIR 45 (+) = 12 ~ 15 (+) ; 14 ~ 14 ; 15 ~ 16 (+) ; 
FONCE 29 ~ CLAIR 55 (+) = 16 (+) ~ 15 ; 9 ~ 20 (+) ; 4 ~ 20 (+) ; 
FONCE 30 ~ CLAIR 46 (+) = 19 (+) ~ 11 ; null ~ 20 (+) ; 11 ~ 15 (+) ; 
FONCE 51 (+) ~ CLAIR 37 = 15 (+) ~ 13 ; 20 (+) ~ 7 ; 16 ~ 17 (+) ; 
FONCE 42 ~ CLAIR 47 (+) = 16 (+) ~ 14 ; 14 ~ 17 (+) ; 12 ~ 16 (+) ; 
FONCE 50 (+) ~ CLAIR 40 = 18 (+) ~ 12 ; 17 (+) ~ 13 ; 15 ~ 15 ; 
FONCE 28 ~ CLAIR 56 (+) = 6 ~ 20 (+) ; 16 ~ 16 ; 6 ~ 20 (+) ; 
FONCE 42 ~ CLAIR 49 (+) = 18 (+) ~ 13 ; 14 ~ 16 (+) ; 10 ~ 20 (+) ; 
FONCE 51 (+) ~ CLAIR 41 = 19 (+) ~ 11 ; 16 (+) ~ 14 ; 16 ~ 16 ; 
FONCE 45 ~ CLAIR 47 (+) = 18 (+) ~ 13 ; 12 ~ 19 (+) ; 15 ~ 15 ; 
FONCE 33 ~ CLAIR 57 (+) = 11 ~ 20 (+) ; 11 ~ 20 (+) ; 11 ~ 17 (+) ; 
FONCE 42 ~ CLAIR 45 (+) = 14 ~ 16 (+) ; 14 ~ 14 ; 14 ~ 15 (+) ; 
FONCE 45 (+) ~ CLAIR 44 = 14 ~ 17 (+) ; 14 (+) ~ 12 ; 17 (+) ~ 15 ; 
FONCE 43 (+) ~ CLAIR 43 = 17 (+) ~ 12 ; 11 ~ 17 (+) ; 15 (+) ~ 14 ; 
FONCE 32 ~ CLAIR 43 (+) = 2 ~ 20 (+) ; 12 (+) ~ 11 ; 18 (+) ~ 12 ; 
FONCE 51 (+) ~ CLAIR 39 = 14 ~ 17 (+) ; 20 (+) ~ 10 ; 17 (+) ~ 12 ; 
FONCE 22 ~ CLAIR 44 (+) = null ~ 20 (+) ; 14 ~ 16 (+) ; 8 ~ 8 ; 
FONCE 44 ~ CLAIR 44 (+) = 20 (+) ~ 9 ; 10 ~ 18 (+) ; 14 ~ 17 (+) ; 
FONCE 41 ~ CLAIR 49 (+) = 15 ~ 16 (+) ; 12 ~ 18 (+) ; 14 ~ 15 (+) ; 
FONCE 51 (+) ~ CLAIR 37 = 16 (+) ~ 14 ; 20 (+) ~ 8 ; 15 ~ 15 ; 
FONCE 42 (+) ~ CLAIR 40 = 14 (+) ~ 12 ; 15 ~ 15 ; 13 ~ 13 ; 
FONCE 48 (+) ~ CLAIR 38 = 8 ~ 20 (+) ; 20 (+) ~ 11 ; 20 (+) ~ 7 ; 
FONCE 41 ~ CLAIR 41 (+) = 14 ~ 17 (+) ; 11 ~ 16 (+) ; 16 (+) ~ 8 ; 
FONCE 36 ~ CLAIR 52 (+) = 16 (+) ~ 14 ; 11 ~ 18 (+) ; 9 ~ 20 (+) ; 
FONCE 29 ~ CLAIR 52 (+) = 16 (+) ~ 12 ; 8 ~ 20 (+) ; 5 ~ 20 (+) ; 
FONCE 51 (+) ~ CLAIR 43 = 15 ~ 15 ; 16 (+) ~ 14 ; 20 (+) ~ 14 ; 
FONCE 40 ~ CLAIR 50 (+) = 13 ~ 18 (+) ; 12 ~ 16 (+) ; 15 ~ 16 (+) ; 
FONCE 38 ~ CLAIR 43 (+) = 11 ~ 20 (+) ; 18 (+) ~ 14 ; 9 ~ 9 ; 
FONCE 40 ~ CLAIR 45 (+) = 14 ~ 16 (+) ; 12 ~ 13 (+) ; 14 ~ 16 (+) ; 
FONCE 38 (+) ~ CLAIR 32 = 10 ~ 16 (+) ; 20 (+) ~ 5 ; 8 ~ 11 (+) ; 
FONCE 44 (+) ~ CLAIR 43 = 20 (+) ~ 12 ; 19 (+) ~ 11 ; 5 ~ 20 (+) ; 
FONCE 39 ~ CLAIR 50 (+) = 14 ~ 15 (+) ; 11 ~ 20 (+) ; 14 ~ 15 (+) ; 
FONCE 35 ~ CLAIR 50 (+) = 14 ~ 17 (+) ; 10 ~ 20 (+) ; 11 ~ 13 (+) ; 
FONCE 44 ~ CLAIR 48 (+) = 17 (+) ~ 15 ; 18 (+) ~ 13 ; 9 ~ 20 (+) ; 
FONCE 35 ~ CLAIR 51 (+) = 9 ~ 20 (+) ; 14 ~ 16 (+) ; 12 ~ 15 (+) ; 
FONCE 44 ~ CLAIR 49 (+) = 11 ~ 20 (+) ; 19 (+) ~ 13 ; 14 ~ 16 (+) ; 
FONCE 46 (+) ~ CLAIR 36 = 20 (+) ~ 6 ; 14 ~ 19 (+) ; 12 (+) ~ 11 ; 
FONCE 31 ~ CLAIR 45 (+) = 12 ~ 14 (+) ; 12 ~ 18 (+) ; 7 ~ 13 (+) ; 
FONCE 50 (+) ~ CLAIR 39 = 20 (+) ~ 9 ; 18 (+) ~ 12 ; 12 ~ 18 (+) ; 
FONCE 49 (+) ~ CLAIR 27 = 13 (+) ~ 9 ; 16 (+) ~ 13 ; 20 (+) ~ 5 ; 
FONCE 35 ~ CLAIR 51 (+) = 15 ~ 15 ; 15 ~ 16 (+) ; 5 ~ 20 (+) ; 
FONCE 46 (+) ~ CLAIR 45 = 16 (+) ~ 14 ; 16 (+) ~ 15 ; 14 ~ 16 (+) ; 
FONCE 42 ~ CLAIR 46 (+) = 6 ~ 20 (+) ; 18 (+) ~ 12 ; 18 (+) ~ 14 ; 
FONCE 57 (+) ~ CLAIR 27 = 20 (+) ~ 6 ; 20 (+) ~ 7 ; 17 (+) ~ 14 ; 
FONCE 40 (+) ~ CLAIR 40 = 9 ~ 20 (+) ; 15 (+) ~ 10 ; 16 (+) ~ 10 ; 
FONCE 42 (+) ~ CLAIR 42 = 15 (+) ~ 13 ; 7 ~ 20 (+) ; 20 (+) ~ 9 ; 
FONCE 42 ~ CLAIR 44 (+) = 12 ~ 14 (+) ; 12 ~ 16 (+) ; 18 (+) ~ 14 ; 
FONCE 43 (+) ~ CLAIR 35 = 19 (+) ~ 11 ; 10 ~ 13 (+) ; 14 (+) ~ 11 ; 
FONCE 50 (+) ~ CLAIR 35 = 17 (+) ~ 16 ; 13 ~ 15 (+) ; 20 (+) ~ 4 ; 
FONCE 50 (+) ~ CLAIR 42 = 15 (+) ~ 14 ; 15 ~ 17 (+) ; 20 (+) ~ 11 ; 
FONCE 35 ~ CLAIR 52 (+) = 10 ~ 19 (+) ; 7 ~ 20 (+) ; 18 (+) ~ 13 ; 
FONCE 51 (+) ~ CLAIR 35 = 16 (+) ~ 14 ; 20 (+) ~ 8 ; 15 (+) ~ 13 ; 
FONCE 45 (+) ~ CLAIR 38 = 10 ~ 12 (+) ; 20 (+) ~ 11 ; 15 ~ 15 ; 
FONCE 51 (+) ~ CLAIR 41 = 17 (+) ~ 14 ; 19 (+) ~ 12 ; 15 ~ 15 ; 
FONCE 36 ~ CLAIR 51 (+) = 12 ~ 17 (+) ; 13 ~ 18 (+) ; 11 ~ 16 (+) ; 
FONCE 41 ~ CLAIR 46 (+) = 10 ~ 20 (+) ; 13 ~ 17 (+) ; 18 (+) ~ 9 ; 
FONCE 41 ~ CLAIR 48 (+) = 11 ~ 19 (+) ; 14 ~ 14 ; 16 (+) ~ 15 ; 
FONCE 34 ~ CLAIR 55 (+) = 11 ~ 18 (+) ; 13 ~ 17 (+) ; 10 ~ 20 (+) ; 
FONCE 34 ~ CLAIR 54 (+) = 8 ~ 17 (+) ; 12 ~ 20 (+) ; 14 ~ 17 (+) ; 
FONCE 33 ~ CLAIR 52 (+) = 16 ~ 16 ; 17 (+) ~ 16 ; null ~ 20 (+) ; 
FONCE 36 ~ CLAIR 42 (+) = 14 ~ 17 (+) ; 9 (+) ~ 7 ; 13 ~ 18 (+) ; 
FONCE 47 (+) ~ CLAIR 46 = 18 (+) ~ 13 ; 16 (+) ~ 15 ; 13 ~ 18 (+) ; 
FONCE 43 ~ CLAIR 46 (+) = 14 ~ 18 (+) ; 15 ~ 17 (+) ; 14 (+) ~ 11 ; 
FONCE 37 ~ CLAIR 43 (+) = 10 ~ 17 (+) ; 11 ~ 11 ; 16 (+) ~ 15 ; 
FONCE 53 (+) ~ CLAIR 40 = 19 (+) ~ 13 ; 15 ~ 16 (+) ; 19 (+) ~ 11 ; 
FONCE 58 (+) ~ CLAIR 31 = 20 (+) ~ 8 ; 20 (+) ~ 10 ; 18 (+) ~ 13 ; 
FONCE 44 ~ CLAIR 46 (+) = 15 ~ 15 ; 11 ~ 20 (+) ; 18 (+) ~ 11 ; 
FONCE 38 ~ CLAIR 46 (+) = 19 (+) ~ 13 ; 7 ~ 15 (+) ; 12 ~ 18 (+) ; 
FONCE 44 ~ CLAIR 46 (+) = 15 ~ 15 ; 10 ~ 19 (+) ; 19 (+) ~ 12 ; 
FONCE 49 (+) ~ CLAIR 42 = 17 (+) ~ 15 ; 15 (+) ~ 13 ; 17 (+) ~ 14 ; 
FONCE 43 (+) ~ CLAIR 42 = 12 ~ 17 (+) ; 11 ~ 17 (+) ; 20 (+) ~ 8 ; 
FONCE 44 ~ CLAIR 44 = 12 ~ 17 (+) ; 14 ~ 14 ; 18 (+) ~ 13 ; 
FONCE 46 (+) ~ CLAIR 36 = 20 (+) ~ 7 ; 12 ~ 17 (+) ; 14 (+) ~ 12 ; 
FONCE 46 (+) ~ CLAIR 41 = 20 (+) ~ 8 ; 9 ~ 20 (+) ; 17 (+) ~ 13 ; 
FONCE 42 (+) ~ CLAIR 40 = 18 (+) ~ 13 ; 13 (+) ~ 10 ; 11 ~ 17 (+) ; 
FONCE 41 ~ CLAIR 46 (+) = 16 ~ 16 ; 20 (+) ~ 10 ; 5 ~ 20 (+) ; 
FONCE 50 (+) ~ CLAIR 39 = 20 (+) ~ 7 ; 15 ~ 15 ; 15 ~ 17 (+) ; 
FONCE 47 (+) ~ CLAIR 40 = 13 ~ 13 ; 19 (+) ~ 10 ; 15 ~ 17 (+) ; 
FONCE 42 ~ CLAIR 46 (+) = 11 ~ 16 (+) ; 19 (+) ~ 11 ; 12 ~ 19 (+) ; 
FONCE 42 ~ CLAIR 46 (+) = 13 ~ 16 (+) ; 15 (+) ~ 14 ; 14 ~ 16 (+) ; 
FONCE 48 (+) ~ CLAIR 41 = 20 (+) ~ 9 ; 15 ~ 17 (+) ; 13 ~ 15 (+) ; 
FONCE 52 (+) ~ CLAIR 32 = 20 (+) ~ 6 ; 19 (+) ~ 11 ; 13 ~ 15 (+) ; 
FONCE 27 ~ CLAIR 51 (+) = 17 (+) ~ 12 ; 10 ~ 19 (+) ; null ~ 20 (+) ; 
FONCE 47 (+) ~ CLAIR 47 = 16 ~ 18 (+) ; 16 (+) ~ 15 ; 15 (+) ~ 14 ; 
FONCE 27 ~ CLAIR 58 (+) = 12 ~ 20 (+) ; 14 ~ 18 (+) ; 1 ~ 20 (+) ; 
FONCE 27 ~ CLAIR 54 (+) = 12 ~ 20 (+) ; 13 ~ 14 (+) ; 2 ~ 20 (+) ; 
FONCE 48 (+) ~ CLAIR 36 = 18 (+) ~ 12 ; 12 (+) ~ 11 ; 18 (+) ~ 13 ; 
FONCE 32 ~ CLAIR 47 (+) = 17 (+) ~ 12 ; 7 ~ 15 (+) ; 8 ~ 20 (+) ; 
FONCE 32 ~ CLAIR 59 (+) = 12 ~ 19 (+) ; 9 ~ 20 (+) ; 11 ~ 20 (+) ; 
FONCE 40 ~ CLAIR 51 (+) = 14 ~ 18 (+) ; 16 (+) ~ 14 ; 10 ~ 19 (+) ; 
FONCE 43 ~ CLAIR 46 (+) = 13 ~ 18 (+) ; 10 ~ 20 (+) ; 20 (+) ~ 8 ; 
FONCE 42 (+) ~ CLAIR 42 = 16 (+) ~ 15 ; 14 ~ 18 (+) ; 12 (+) ~ 9 ; 
FONCE 47 (+) ~ CLAIR 42 = 15 (+) ~ 14 ; 16 (+) ~ 14 ; 16 (+) ~ 14 ; 
FONCE 40 ~ CLAIR 50 (+) = 15 ~ 16 (+) ; 14 ~ 16 (+) ; 11 ~ 18 (+) ; 
FONCE 48 (+) ~ CLAIR 43 = 14 ~ 16 (+) ; 14 ~ 16 (+) ; 20 (+) ~ 11 ; 
FONCE 43 ~ CLAIR 51 (+) = 13 ~ 19 (+) ; 14 ~ 17 (+) ; 16 (+) ~ 15 ; 
FONCE 49 (+) ~ CLAIR 38 = 15 (+) ~ 14 ; 20 (+) ~ 8 ; 14 ~ 16 (+) ; 
FONCE 43 (+) ~ CLAIR 42 = 15 (+) ~ 14 ; 12 ~ 17 (+) ; 16 (+) ~ 11 ; 
FONCE 35 ~ CLAIR 48 (+) = 14 ~ 18 (+) ; 13 (+) ~ 10 ; 8 ~ 20 (+) ; 
FONCE 27 ~ CLAIR 49 (+) = null ~ 20 (+) ; 13 ~ 15 (+) ; 14 ~ 14 ; 
FONCE 48 (+) ~ CLAIR 43 = 16 (+) ~ 13 ; 15 ~ 16 (+) ; 17 (+) ~ 14 ; 
FONCE 42 ~ CLAIR 45 (+) = 18 (+) ~ 11 ; 13 ~ 15 (+) ; 11 ~ 19 (+) ; 
FONCE 26 ~ CLAIR 50 (+) = 13 ~ 14 (+) ; 13 ~ 16 (+) ; null ~ 20 (+) ; 
FONCE 37 ~ CLAIR 41 (+) = 13 (+) ~ 11 ; 8 ~ 20 (+) ; 16 (+) ~ 10 ; 
FONCE 45 (+) ~ CLAIR 34 = 11 ~ 12 (+) ; 14 (+) ~ 10 ; 20 (+) ~ 12 ; 
FONCE 43 ~ CLAIR 46 (+) = 12 ~ 16 (+) ; 20 (+) ~ 11 ; 11 ~ 19 (+) ; 
FONCE 51 (+) ~ CLAIR 27 = 20 (+) ~ 9 ; 11 ~ 11 ; 20 (+) ~ 7 ; 
FONCE 48 (+) ~ CLAIR 41 = 13 ~ 17 (+) ; 20 (+) ~ 8 ; 15 ~ 16 (+) ; 
FONCE 40 ~ CLAIR 46 (+) = 16 (+) ~ 15 ; 13 (+) ~ 12 ; 11 ~ 19 (+) ; 
FONCE 46 ~ CLAIR 49 (+) = 15 ~ 16 (+) ; 15 ~ 17 (+) ; 16 ~ 16 ; 
FONCE 37 ~ CLAIR 46 (+) = 12 ~ 18 (+) ; 17 (+) ~ 8 ; 8 ~ 20 (+) ; 
FONCE 42 ~ CLAIR 47 (+) = 18 (+) ~ 12 ; 11 ~ 20 (+) ; 13 ~ 15 (+) ; 
FONCE 42 ~ CLAIR 48 (+) = 16 (+) ~ 15 ; 10 ~ 18 (+) ; 16 (+) ~ 15 ; 
FONCE 38 ~ CLAIR 40 (+) = 15 (+) ~ 10 ; 12 ~ 18 (+) ; 11 ~ 12 (+) ; 
FONCE 42 ~ CLAIR 48 (+) = 20 (+) ~ 10 ; 11 ~ 18 (+) ; 11 ~ 20 (+) ; 
FONCE 32 ~ CLAIR 58 (+) = 8 ~ 20 (+) ; 11 ~ 20 (+) ; 13 ~ 18 (+) ; 
FONCE 43 ~ CLAIR 51 (+) = 14 ~ 18 (+) ; 13 ~ 18 (+) ; 16 (+) ~ 15 ; 
FONCE 40 (+) ~ CLAIR 39 = 14 (+) ~ 11 ; 12 ~ 12 ; 14 ~ 16 (+) ; 
FONCE 45 (+) ~ CLAIR 41 = 12 ~ 12 ; 19 (+) ~ 12 ; 14 ~ 17 (+) ; 
FONCE 48 (+) ~ CLAIR 43 = 17 (+) ~ 15 ; 14 ~ 18 (+) ; 17 (+) ~ 10 ; 
FONCE 38 ~ CLAIR 45 (+) = 14 (+) ~ 13 ; 19 (+) ~ 12 ; 5 ~ 20 (+) ; 
FONCE 48 (+) ~ CLAIR 43 = 12 ~ 19 (+) ; 16 (+) ~ 14 ; 20 (+) ~ 10 ; 
FONCE 49 (+) ~ CLAIR 40 = 19 (+) ~ 8 ; 10 ~ 20 (+) ; 20 (+) ~ 12 ; 
FONCE 48 (+) ~ CLAIR 36 = 20 (+) ~ 8 ; 13 ~ 16 (+) ; 15 (+) ~ 12 ; 
FONCE 36 ~ CLAIR 45 (+) = 12 (+) ~ 10 ; 12 ~ 16 (+) ; 12 ~ 19 (+) ; 
FONCE 51 (+) ~ CLAIR 42 = 12 ~ 19 (+) ; 20 (+) ~ 11 ; 19 (+) ~ 12 ; 
FONCE 46 (+) ~ CLAIR 41 = 15 (+) ~ 14 ; 17 (+) ~ 13 ; 14 ~ 14 ; 
FONCE 48 (+) ~ CLAIR 44 = 12 ~ 19 (+) ; 20 (+) ~ 10 ; 16 (+) ~ 15 ; 
FONCE 50 (+) ~ CLAIR 41 = 16 (+) ~ 13 ; 14 ~ 17 (+) ; 20 (+) ~ 11 ; 
FONCE 47 ~ CLAIR 48 (+) = 17 (+) ~ 14 ; 13 ~ 19 (+) ; 17 (+) ~ 15 ; 
FONCE 47 (+) ~ CLAIR 40 = 18 (+) ~ 10 ; 9 ~ 20 (+) ; 20 (+) ~ 10 ; 
FONCE 49 (+) ~ CLAIR 40 = 18 (+) ~ 13 ; 16 (+) ~ 13 ; 15 (+) ~ 14 ; 
FONCE 46 ~ CLAIR 47 (+) = 15 ~ 16 (+) ; 12 ~ 20 (+) ; 19 (+) ~ 11 ; 
FONCE 45 ~ CLAIR 46 (+) = 14 ~ 18 (+) ; 16 (+) ~ 15 ; 15 (+) ~ 13 ; 
FONCE 30 ~ CLAIR 47 (+) = 19 (+) ~ 13 ; null ~ 20 (+) ; 11 ~ 14 (+) ; 
FONCE 50 (+) ~ CLAIR 33 = 15 (+) ~ 11 ; 15 (+) ~ 12 ; 20 (+) ~ 10 ; 
FONCE 48 (+) ~ CLAIR 41 = 14 ~ 17 (+) ; 15 (+) ~ 12 ; 19 (+) ~ 12 ; 
FONCE 49 (+) ~ CLAIR 40 = 15 ~ 16 (+) ; 17 (+) ~ 11 ; 17 (+) ~ 13 ; 
FONCE 34 ~ CLAIR 53 (+) = 14 ~ 15 (+) ; 12 ~ 18 (+) ; 8 ~ 20 (+) ; 
FONCE 40 ~ CLAIR 47 (+) = 12 ~ 15 (+) ; 17 (+) ~ 16 ; 11 ~ 16 (+) ; 
FONCE 51 (+) ~ CLAIR 37 = 15 ~ 15 ; 18 (+) ~ 9 ; 18 (+) ~ 13 ; 
FONCE 47 (+) ~ CLAIR 42 = 20 (+) ~ 8 ; 10 ~ 19 (+) ; 17 (+) ~ 15 ; 
FONCE 47 (+) ~ CLAIR 44 = 20 (+) ~ 9 ; 13 ~ 17 (+) ; 14 ~ 18 (+) ; 
FONCE 34 ~ CLAIR 54 (+) = 15 ~ 16 (+) ; 10 ~ 18 (+) ; 9 ~ 20 (+) ; 
FONCE 40 ~ CLAIR 44 (+) = 9 ~ 20 (+) ; 12 ~ 12 ; 19 (+) ~ 12 ; 
FONCE 38 ~ CLAIR 43 (+) = 16 (+) ~ 10 ; 10 ~ 20 (+) ; 12 ~ 13 (+) ; 
FONCE 44 (+) ~ CLAIR 43 = 20 (+) ~ 11 ; 18 (+) ~ 12 ; 6 ~ 20 (+) ; 
FONCE 50 (+) ~ CLAIR 40 = 18 (+) ~ 13 ; 20 (+) ~ 11 ; 12 ~ 16 (+) ; 
FONCE 43 ~ CLAIR 49 (+) = 17 (+) ~ 14 ; 14 ~ 16 (+) ; 12 ~ 19 (+) ; 
FONCE 50 (+) ~ CLAIR 41 = 18 (+) ~ 12 ; 15 (+) ~ 13 ; 17 (+) ~ 16 ; 
FONCE 40 ~ CLAIR 45 (+) = 9 ~ 20 (+) ; 19 (+) ~ 11 ; 12 ~ 14 (+) ; 
FONCE 51 (+) ~ CLAIR 40 = 20 (+) ~ 9 ; 16 (+) ~ 15 ; 15 ~ 16 (+) ; 
FONCE 45 (+) ~ CLAIR 36 = 20 (+) ~ 11 ; 10 ~ 10 ; 15 ~ 15 ; 
FONCE 47 (+) ~ CLAIR 39 = 19 (+) ~ 13 ; 16 (+) ~ 14 ; 12 ~ 12 ; 
FONCE 35 ~ CLAIR 52 (+) = 12 ~ 20 (+) ; 14 ~ 15 (+) ; 9 ~ 17 (+) ; 
FONCE 42 ~ CLAIR 51 (+) = 20 (+) ~ 14 ; 12 ~ 17 (+) ; 10 ~ 20 (+) ; 
FONCE 42 ~ CLAIR 45 (+) = 12 ~ 13 (+) ; 14 ~ 17 (+) ; 16 (+) ~ 15 ; 
FONCE 40 ~ CLAIR 51 (+) = 12 ~ 19 (+) ; 15 ~ 16 (+) ; 13 ~ 16 (+) ; 
FONCE 47 (+) ~ CLAIR 45 = 13 ~ 18 (+) ; 20 (+) ~ 11 ; 14 ~ 16 (+) ; 
FONCE 42 ~ CLAIR 45 (+) = 13 ~ 15 (+) ; 11 ~ 17 (+) ; 18 (+) ~ 13 ; 
FONCE 38 ~ CLAIR 56 (+) = 14 ~ 17 (+) ; 10 ~ 20 (+) ; 14 ~ 19 (+) ; 
FONCE 44 ~ CLAIR 46 (+) = 13 ~ 17 (+) ; 17 (+) ~ 15 ; 14 ~ 14 ; 
FONCE 36 ~ CLAIR 41 (+) = 14 ~ 16 (+) ; 14 ~ 15 (+) ; 8 ~ 10 (+) ; 
FONCE 31 ~ CLAIR 47 (+) = 13 ~ 13 ; 14 ~ 14 ; 4 ~ 20 (+) ; 
FONCE 52 (+) ~ CLAIR 38 = 17 (+) ~ 14 ; 20 (+) ~ 11 ; 15 (+) ~ 13 ; 
FONCE 45 (+) ~ CLAIR 43 = 16 (+) ~ 13 ; 16 (+) ~ 15 ; 13 ~ 15 (+) ; 
FONCE 43 (+) ~ CLAIR 37 = 10 (+) ~ 9 ; 14 ~ 16 (+) ; 19 (+) ~ 12 ; 
FONCE 34 ~ CLAIR 52 (+) = 16 (+) ~ 14 ; 6 ~ 20 (+) ; 12 ~ 18 (+) ; 
FONCE 56 (+) ~ CLAIR 23 = 19 (+) ~ 10 ; 17 (+) ~ 10 ; 20 (+) ~ 3 ; 
FONCE 38 (+) ~ CLAIR 37 = 8 ~ 20 (+) ; 20 (+) ~ 10 ; 10 (+) ~ 7 ; 
FONCE 38 ~ CLAIR 50 (+) = 12 ~ 16 (+) ; 10 ~ 20 (+) ; 16 (+) ~ 14 ; 
FONCE 41 ~ CLAIR 49 (+) = 11 ~ 18 (+) ; 12 ~ 17 (+) ; 18 (+) ~ 14 ; 
FONCE 47 (+) ~ CLAIR 44 = 18 (+) ~ 12 ; 15 ~ 16 (+) ; 14 ~ 16 (+) ; 
FONCE 42 ~ CLAIR 49 (+) = 17 (+) ~ 14 ; 8 ~ 20 (+) ; 17 (+) ~ 15 ; 
FONCE 46 (+) ~ CLAIR 40 = 13 ~ 18 (+) ; 13 (+) ~ 12 ; 20 (+) ~ 10 ; 
FONCE 56 (+) ~ CLAIR 32 = 20 (+) ~ 11 ; 17 (+) ~ 10 ; 19 (+) ~ 11 ; 
FONCE 40 ~ CLAIR 42 (+) = 13 ~ 17 (+) ; 13 (+) ~ 11 ; 14 ~ 14 ; 
FONCE 49 (+) ~ CLAIR 40 = 12 ~ 15 (+) ; 17 (+) ~ 13 ; 20 (+) ~ 12 ; 
FONCE 25 ~ CLAIR 49 (+) = null ~ 20 (+) ; 12 ~ 15 (+) ; 13 ~ 14 (+) ; 
FONCE 44 ~ CLAIR 47 (+) = 12 ~ 19 (+) ; 17 (+) ~ 12 ; 15 ~ 16 (+) ; 
FONCE 49 (+) ~ CLAIR 43 = 19 (+) ~ 12 ; 15 ~ 15 ; 15 ~ 16 (+) ; 
FONCE 46 (+) ~ CLAIR 39 = 9 ~ 16 (+) ; 20 (+) ~ 9 ; 17 (+) ~ 14 ; 
FONCE 45 (+) ~ CLAIR 43 = 15 ~ 15 ; 16 (+) ~ 14 ; 14 ~ 14 ; 
FONCE 45 ~ CLAIR 48 (+) = 18 (+) ~ 11 ; 14 ~ 18 (+) ; 13 ~ 19 (+) ; 
FONCE 29 ~ CLAIR 54 (+) = 8 ~ 20 (+) ; 13 ~ 14 (+) ; 8 ~ 20 (+) ; 
FONCE 39 ~ CLAIR 46 (+) = 16 (+) ~ 15 ; 12 ~ 13 (+) ; 11 ~ 18 (+) ; 
FONCE 48 (+) ~ CLAIR 47 = 20 (+) ~ 12 ; 15 ~ 16 (+) ; 13 ~ 19 (+) ; 
FONCE 43 (+) ~ CLAIR 39 = 14 ~ 16 (+) ; 16 (+) ~ 12 ; 13 (+) ~ 11 ; 
FONCE 52 (+) ~ CLAIR 34 = 20 (+) ~ 10 ; 16 (+) ~ 8 ; 16 ~ 16 ; 
FONCE 44 (+) ~ CLAIR 37 = 14 ~ 18 (+) ; 11 (+) ~ 7 ; 19 (+) ~ 12 ; 
FONCE 39 (+) ~ CLAIR 35 = 15 ~ 15 ; 13 ~ 13 ; 11 (+) ~ 7 ; 
FONCE 49 (+) ~ CLAIR 45 = 11 ~ 20 (+) ; 18 (+) ~ 13 ; 20 (+) ~ 12 ; 
FONCE 51 (+) ~ CLAIR 40 = 20 (+) ~ 10 ; 16 (+) ~ 14 ; 15 ~ 16 (+) ; 
FONCE 43 (+) ~ CLAIR 42 = 15 (+) ~ 13 ; 15 (+) ~ 14 ; 13 ~ 15 (+) ; 
FONCE 36 ~ CLAIR 46 (+) = 11 ~ 14 (+) ; 18 (+) ~ 12 ; 7 ~ 20 (+) ; 
FONCE 37 (+) ~ CLAIR 29 = 20 (+) ~ 5 ; 3 ~ 6 (+) ; 14 ~ 18 (+) ; 
FONCE 49 (+) ~ CLAIR 39 = 16 (+) ~ 14 ; 18 (+) ~ 13 ; 15 (+) ~ 12 ; 
FONCE 37 ~ CLAIR 50 (+) = 7 ~ 20 (+) ; 18 (+) ~ 11 ; 12 ~ 19 (+) ; 
FONCE 23 ~ CLAIR 53 (+) = 6 ~ 20 (+) ; 12 ~ 13 (+) ; 5 ~ 20 (+) ; 
FONCE 38 ~ CLAIR 45 (+) = 18 (+) ~ 11 ; 8 ~ 20 (+) ; 12 ~ 14 (+) ; 
FONCE 41 ~ CLAIR 45 (+) = 19 (+) ~ 7 ; 9 ~ 20 (+) ; 13 ~ 18 (+) ; 
FONCE 46 (+) ~ CLAIR 41 = 15 ~ 17 (+) ; 11 ~ 20 (+) ; 20 (+) ~ 4 ; 
FONCE 50 (+) ~ CLAIR 44 = 20 (+) ~ 11 ; 17 (+) ~ 14 ; 13 ~ 19 (+) ; 
FONCE 51 (+) ~ CLAIR 35 = 20 (+) ~ 6 ; 18 (+) ~ 13 ; 13 ~ 16 (+) ; 
FONCE 42 ~ CLAIR 50 (+) = 10 ~ 20 (+) ; 14 ~ 17 (+) ; 18 (+) ~ 13 ; 
FONCE 55 (+) ~ CLAIR 34 = 20 (+) ~ 9 ; 15 ~ 15 ; 20 (+) ~ 10 ; 
FONCE 41 ~ CLAIR 50 (+) = 15 ~ 17 (+) ; 13 ~ 17 (+) ; 13 ~ 16 (+) ; 
FONCE 43 ~ CLAIR 48 (+) = 17 (+) ~ 13 ; 10 ~ 20 (+) ; 16 (+) ~ 15 ; 
FONCE 41 ~ CLAIR 48 (+) = 14 ~ 15 (+) ; 10 ~ 20 (+) ; 17 (+) ~ 13 ; 
FONCE 45 (+) ~ CLAIR 42 = 19 (+) ~ 10 ; 14 ~ 17 (+) ; 12 ~ 15 (+) ; 
FONCE 46 (+) ~ CLAIR 36 = 20 (+) ~ 4 ; 15 (+) ~ 13 ; 11 ~ 19 (+) ; 
FONCE 31 ~ CLAIR 50 (+) = 15 (+) ~ 10 ; 6 ~ 20 (+) ; 10 ~ 20 (+) ; 
FONCE 38 ~ CLAIR 49 (+) = 20 (+) ~ 9 ; 6 ~ 20 (+) ; 12 ~ 20 (+) ; 
FONCE 34 ~ CLAIR 43 (+) = 11 ~ 20 (+) ; 7 ~ 8 (+) ; 16 (+) ~ 15 ; 
FONCE 27 ~ CLAIR 59 (+) = 11 ~ 20 (+) ; 7 ~ 20 (+) ; 9 ~ 19 (+) ; 
FONCE 47 (+) ~ CLAIR 46 = 17 (+) ~ 14 ; 12 ~ 19 (+) ; 18 (+) ~ 13 ; 
FONCE 39 ~ CLAIR 43 (+) = 8 ~ 19 (+) ; 16 (+) ~ 13 ; 15 (+) ~ 11 ; 
FONCE 39 ~ CLAIR 45 (+) = 15 ~ 16 (+) ; 10 ~ 20 (+) ; 14 (+) ~ 9 ; 
FONCE 44 (+) ~ CLAIR 42 = 10 ~ 12 (+) ; 14 ~ 19 (+) ; 20 (+) ~ 11 ; 
FONCE 44 ~ CLAIR 49 (+) = 16 ~ 16 ; 15 ~ 17 (+) ; 13 ~ 16 (+) ; 
FONCE 35 ~ CLAIR 43 (+) = 12 ~ 12 ; 11 ~ 13 (+) ; 12 ~ 18 (+) ; 
FONCE 38 ~ CLAIR 50 (+) = 20 (+) ~ 11 ; 7 ~ 20 (+) ; 11 ~ 19 (+) ; 
FONCE 46 (+) ~ CLAIR 44 = 20 (+) ~ 11 ; 17 (+) ~ 13 ; 9 ~ 20 (+) ; 
FONCE 55 (+) ~ CLAIR 35 = 17 (+) ~ 13 ; 19 (+) ~ 11 ; 19 (+) ~ 11 ; 
FONCE 48 (+) ~ CLAIR 39 = 18 (+) ~ 13 ; 17 (+) ~ 14 ; 13 (+) ~ 12 ; 
FONCE 47 ~ CLAIR 47 (+) = 18 (+) ~ 15 ; 15 ~ 17 (+) ; 14 ~ 15 (+) ; 
FONCE 48 (+) ~ CLAIR 40 = 20 (+) ~ 9 ; 13 ~ 17 (+) ; 15 (+) ~ 14 ; 
FONCE 45 (+) ~ CLAIR 44 = 13 ~ 18 (+) ; 18 (+) ~ 9 ; 14 ~ 17 (+) ; 
FONCE 39 ~ CLAIR 48 (+) = 11 ~ 17 (+) ; 16 (+) ~ 14 ; 12 ~ 17 (+) ; 
FONCE 47 (+) ~ CLAIR 37 = 17 (+) ~ 13 ; 16 (+) ~ 12 ; 14 (+) ~ 12 ; 
FONCE 33 ~ CLAIR 53 (+) = 10 ~ 20 (+) ; 9 ~ 19 (+) ; 14 ~ 14 ; 
FONCE 46 (+) ~ CLAIR 44 = 11 ~ 20 (+) ; 16 (+) ~ 12 ; 19 (+) ~ 12 ; 
FONCE 53 (+) ~ CLAIR 38 = 18 (+) ~ 12 ; 19 (+) ~ 12 ; 16 (+) ~ 14 ; 
FONCE 41 ~ CLAIR 44 (+) = 9 ~ 20 (+) ; 15 (+) ~ 10 ; 17 (+) ~ 14 ; 
FONCE 55 (+) ~ CLAIR 39 = 17 (+) ~ 15 ; 18 (+) ~ 13 ; 20 (+) ~ 11 ; 
FONCE 40 ~ CLAIR 40 (+) = 16 (+) ~ 7 ; 12 ~ 18 (+) ; 12 ~ 15 (+) ; 
FONCE 37 ~ CLAIR 55 (+) = 12 ~ 19 (+) ; 8 ~ 20 (+) ; 17 (+) ~ 16 ; 
FONCE 30 ~ CLAIR 45 (+) = 7 ~ 9 (+) ; 13 ~ 19 (+) ; 10 ~ 17 (+) ; 
FONCE 48 (+) ~ CLAIR 35 = 18 (+) ~ 12 ; 13 (+) ~ 10 ; 17 (+) ~ 13 ; 
FONCE 52 (+) ~ CLAIR 37 = 19 (+) ~ 12 ; 13 ~ 16 (+) ; 20 (+) ~ 9 ; 
FONCE 38 ~ CLAIR 44 (+) = 18 (+) ~ 12 ; 11 ~ 19 (+) ; 9 ~ 13 (+) ; 
FONCE 42 ~ CLAIR 46 (+) = 16 (+) ~ 12 ; 12 ~ 18 (+) ; 14 ~ 16 (+) ; 
FONCE 46 ~ CLAIR 48 (+) = 19 (+) ~ 13 ; 11 ~ 20 (+) ; 16 (+) ~ 15 ; 
FONCE 43 ~ CLAIR 45 (+) = 14 ~ 16 (+) ; 13 ~ 14 (+) ; 16 (+) ~ 15 ; 
FONCE 37 ~ CLAIR 38 (+) = 6 ~ 8 (+) ; 16 (+) ~ 15 ; 15 ~ 15 ; 
FONCE 46 (+) ~ CLAIR 42 = 8 ~ 20 (+) ; 20 (+) ~ 10 ; 18 (+) ~ 12 ; 
FONCE 51 (+) ~ CLAIR 35 = 20 (+) ~ 6 ; 14 ~ 16 (+) ; 17 (+) ~ 13 ; 
FONCE 33 ~ CLAIR 54 (+) = 15 ~ 17 (+) ; 4 ~ 20 (+) ; 14 ~ 17 (+) ; 
FONCE 45 (+) ~ CLAIR 44 = 14 ~ 15 (+) ; 16 ~ 16 ; 15 (+) ~ 13 ; 
FONCE 33 ~ CLAIR 44 (+) = 8 ~ 10 (+) ; 10 ~ 18 (+) ; 15 ~ 16 (+) ; 
FONCE 36 ~ CLAIR 47 (+) = 17 (+) ~ 8 ; 7 ~ 20 (+) ; 12 ~ 19 (+) ; 
FONCE 50 (+) ~ CLAIR 38 = 20 (+) ~ 10 ; 12 ~ 15 (+) ; 18 (+) ~ 13 ; 
FONCE 50 (+) ~ CLAIR 40 = 16 (+) ~ 12 ; 18 (+) ~ 13 ; 16 (+) ~ 15 ; 
FONCE 53 (+) ~ CLAIR 35 = 17 (+) ~ 13 ; 20 (+) ~ 8 ; 16 (+) ~ 14 ; 
FONCE 43 ~ CLAIR 49 (+) = 15 (+) ~ 14 ; 13 ~ 18 (+) ; 15 ~ 17 (+) ; 
FONCE 47 (+) ~ CLAIR 41 = 15 (+) ~ 12 ; 14 ~ 17 (+) ; 18 (+) ~ 12 ; 
FONCE 41 ~ CLAIR 49 (+) = 15 ~ 17 (+) ; 16 (+) ~ 15 ; 10 ~ 17 (+) ; 
FONCE 44 (+) ~ CLAIR 41 = 20 (+) ~ 6 ; 13 ~ 18 (+) ; 11 ~ 17 (+) ; 
FONCE 37 ~ CLAIR 54 (+) = 11 ~ 19 (+) ; 13 ~ 19 (+) ; 13 ~ 16 (+) ; 
FONCE 34 ~ CLAIR 44 (+) = 16 (+) ~ 11 ; 18 (+) ~ 13 ; null ~ 20 (+) ; 
FONCE 38 ~ CLAIR 40 (+) = 12 ~ 18 (+) ; 9 ~ 11 (+) ; 17 (+) ~ 11 ; 
FONCE 43 ~ CLAIR 43 (+) = 16 (+) ~ 11 ; 12 ~ 16 (+) ; 15 ~ 16 (+) ; 
FONCE 45 (+) ~ CLAIR 44 = 15 (+) ~ 14 ; 12 ~ 18 (+) ; 18 (+) ~ 12 ; 
FONCE 46 (+) ~ CLAIR 44 = 13 ~ 15 (+) ; 14 ~ 17 (+) ; 19 (+) ~ 12 ; 
FONCE 39 ~ CLAIR 45 (+) = 17 (+) ~ 13 ; 9 ~ 15 (+) ; 13 ~ 17 (+) ; 
FONCE 42 (+) ~ CLAIR 41 = 12 ~ 16 (+) ; 14 ~ 16 (+) ; 16 (+) ~ 9 ; 
FONCE 46 (+) ~ CLAIR 44 = 13 ~ 16 (+) ; 14 ~ 17 (+) ; 19 (+) ~ 11 ; 
FONCE 38 ~ CLAIR 55 (+) = 14 ~ 16 (+) ; 12 ~ 20 (+) ; 12 ~ 19 (+) ; 
FONCE 52 (+) ~ CLAIR 39 = 20 (+) ~ 10 ; 20 (+) ~ 11 ; 12 ~ 18 (+) ; 
FONCE 44 (+) ~ CLAIR 43 = 14 ~ 17 (+) ; 15 (+) ~ 12 ; 15 (+) ~ 14 ; 
FONCE 49 (+) ~ CLAIR 46 = 20 (+) ~ 12 ; 14 ~ 16 (+) ; 15 ~ 18 (+) ; 
FONCE 45 (+) ~ CLAIR 34 = 15 (+) ~ 11 ; 20 (+) ~ 9 ; 10 ~ 14 (+) ; 
FONCE 45 (+) ~ CLAIR 34 = 14 ~ 14 ; 14 (+) ~ 10 ; 17 (+) ~ 10 ; 
FONCE 45 ~ CLAIR 48 (+) = 14 ~ 18 (+) ; 18 (+) ~ 12 ; 13 ~ 18 (+) ; 
FONCE 36 ~ CLAIR 51 (+) = 9 ~ 20 (+) ; 13 ~ 15 (+) ; 14 ~ 16 (+) ; 
FONCE 50 (+) ~ CLAIR 44 = 18 (+) ~ 14 ; 12 ~ 19 (+) ; 20 (+) ~ 11 ; 
FONCE 30 ~ CLAIR 56 (+) = 4 ~ 20 (+) ; 12 ~ 19 (+) ; 14 ~ 17 (+) ; 
FONCE 37 ~ CLAIR 48 (+) = 16 (+) ~ 12 ; 7 ~ 20 (+) ; 14 ~ 16 (+) ; 
FONCE 42 ~ CLAIR 48 (+) = 9 ~ 20 (+) ; 14 ~ 17 (+) ; 19 (+) ~ 11 ; 
FONCE 49 (+) ~ CLAIR 36 = 13 (+) ~ 11 ; 20 (+) ~ 10 ; 16 (+) ~ 15 ; 
FONCE 34 ~ CLAIR 35 (+) = 4 ~ 7 (+) ; 16 (+) ~ 11 ; 14 ~ 17 (+) ; 
FONCE 48 (+) ~ CLAIR 40 = 16 (+) ~ 13 ; 20 (+) ~ 10 ; 12 ~ 17 (+) ; 
FONCE 26 ~ CLAIR 53 (+) = 18 (+) ~ 13 ; 8 ~ 20 (+) ; null ~ 20 (+) ; 
FONCE 56 (+) ~ CLAIR 31 = 20 (+) ~ 7 ; 20 (+) ~ 9 ; 16 (+) ~ 15 ; 
FONCE 44 (+) ~ CLAIR 39 = 17 (+) ~ 11 ; 12 ~ 15 (+) ; 15 (+) ~ 13 ; 
FONCE 45 (+) ~ CLAIR 43 = 15 (+) ~ 12 ; 11 ~ 20 (+) ; 19 (+) ~ 11 ; 
FONCE 47 (+) ~ CLAIR 39 = 14 ~ 14 ; 13 ~ 18 (+) ; 20 (+) ~ 7 ; 
FONCE 35 ~ CLAIR 56 (+) = 14 ~ 17 (+) ; 10 ~ 20 (+) ; 11 ~ 19 (+) ; 
FONCE 42 ~ CLAIR 46 (+) = 12 ~ 14 (+) ; 13 ~ 16 (+) ; 17 (+) ~ 16 ; 
FONCE 45 (+) ~ CLAIR 39 = 20 (+) ~ 12 ; 15 ~ 16 (+) ; 10 ~ 11 (+) ; 
FONCE 43 ~ CLAIR 46 (+) = 20 (+) ~ 11 ; 7 ~ 19 (+) ; 16 ~ 16 ; 
FONCE 43 (+) ~ CLAIR 42 = 10 ~ 20 (+) ; 14 (+) ~ 9 ; 19 (+) ~ 13 ; 
FONCE 40 ~ CLAIR 43 (+) = 18 (+) ~ 12 ; 7 ~ 18 (+) ; 15 (+) ~ 13 ; 
FONCE 41 ~ CLAIR 50 (+) = 15 ~ 16 (+) ; 15 ~ 16 (+) ; 11 ~ 18 (+) ; 
FONCE 46 (+) ~ CLAIR 37 = 15 (+) ~ 13 ; 18 (+) ~ 11 ; 13 ~ 13 ; 
FONCE 46 (+) ~ CLAIR 45 = 18 (+) ~ 12 ; 14 ~ 17 (+) ; 14 ~ 16 (+) ; 
FONCE 39 ~ CLAIR 50 (+) = 17 (+) ~ 15 ; 16 (+) ~ 15 ; 6 ~ 20 (+) ; 
FONCE 39 ~ CLAIR 46 (+) = 17 (+) ~ 13 ; 9 ~ 20 (+) ; 13 ~ 13 ; 
FONCE 47 ~ CLAIR 48 (+) = 18 (+) ~ 13 ; 14 ~ 17 (+) ; 15 ~ 18 (+) ; 
FONCE 46 (+) ~ CLAIR 37 = 8 ~ 20 (+) ; 18 (+) ~ 10 ; 20 (+) ~ 7 ; 
FONCE 36 ~ CLAIR 50 (+) = 10 ~ 14 (+) ; 14 ~ 17 (+) ; 12 ~ 19 (+) ; 
FONCE 35 ~ CLAIR 51 (+) = 7 ~ 20 (+) ; 14 ~ 16 (+) ; 14 ~ 15 (+) ; 
FONCE 45 (+) ~ CLAIR 23 = 20 (+) ~ 7 ; 12 (+) ~ 3 ; 13 ~ 13 ; 
FONCE 38 ~ CLAIR 46 (+) = 15 ~ 16 (+) ; 10 ~ 11 (+) ; 13 ~ 19 (+) ; 
FONCE 53 (+) ~ CLAIR 36 = 13 ~ 17 (+) ; 20 (+) ~ 10 ; 20 (+) ~ 9 ; 
FONCE 36 ~ CLAIR 47 (+) = 11 ~ 17 (+) ; 13 ~ 14 (+) ; 12 ~ 16 (+) ; 
FONCE 48 (+) ~ CLAIR 47 = 16 (+) ~ 15 ; 18 (+) ~ 12 ; 14 ~ 20 (+) ; 
FONCE 51 (+) ~ CLAIR 39 = 14 ~ 18 (+) ; 20 (+) ~ 9 ; 17 (+) ~ 12 ; 
FONCE 53 (+) ~ CLAIR 36 = 20 (+) ~ 11 ; 20 (+) ~ 9 ; 13 ~ 16 (+) ; 
FONCE 52 (+) ~ CLAIR 36 = 20 (+) ~ 11 ; 20 (+) ~ 7 ; 12 ~ 18 (+) ; 
FONCE 47 (+) ~ CLAIR 40 = 11 ~ 20 (+) ; 20 (+) ~ 10 ; 16 (+) ~ 10 ; 
FONCE 45 ~ CLAIR 48 (+) = 13 ~ 17 (+) ; 17 (+) ~ 14 ; 15 ~ 17 (+) ; 
FONCE 35 ~ CLAIR 49 (+) = 12 ~ 12 ; 11 ~ 19 (+) ; 12 ~ 18 (+) ; 
FONCE 39 ~ CLAIR 52 (+) = 15 ~ 16 (+) ; 10 ~ 18 (+) ; 14 ~ 18 (+) ; 
FONCE 47 (+) ~ CLAIR 43 = 11 ~ 16 (+) ; 20 (+) ~ 11 ; 16 ~ 16 ; 
FONCE 52 (+) ~ CLAIR 42 = 17 (+) ~ 14 ; 17 (+) ~ 15 ; 18 (+) ~ 13 ; 
FONCE 38 ~ CLAIR 49 (+) = 15 ~ 15 ; 14 ~ 14 ; 9 ~ 20 (+) ; 
FONCE 54 (+) ~ CLAIR 36 = 18 (+) ~ 12 ; 16 (+) ~ 13 ; 20 (+) ~ 11 ; 
FONCE 47 (+) ~ CLAIR 39 = 11 ~ 20 (+) ; 20 (+) ~ 8 ; 16 (+) ~ 11 ; 
FONCE 49 (+) ~ CLAIR 39 = 14 ~ 15 (+) ; 15 (+) ~ 14 ; 20 (+) ~ 10 ; 
FONCE 36 ~ CLAIR 54 (+) = 10 ~ 20 (+) ; 12 ~ 16 (+) ; 14 ~ 18 (+) ; 
FONCE 34 ~ CLAIR 53 (+) = 17 (+) ~ 14 ; 8 ~ 19 (+) ; 9 ~ 20 (+) ; 
FONCE 42 ~ CLAIR 43 (+) = 20 (+) ~ 7 ; 14 ~ 16 (+) ; 8 ~ 20 (+) ; 
FONCE 48 (+) ~ CLAIR 42 = 16 (+) ~ 14 ; 15 ~ 16 (+) ; 17 (+) ~ 12 ; 
FONCE 39 (+) ~ CLAIR 39 = 15 (+) ~ 8 ; 5 ~ 20 (+) ; 19 (+) ~ 11 ; 
FONCE 44 ~ CLAIR 45 (+) = 20 (+) ~ 10 ; 11 ~ 19 (+) ; 13 ~ 16 (+) ; 
FONCE 42 ~ CLAIR 43 (+) = 17 (+) ~ 12 ; 10 ~ 20 (+) ; 15 (+) ~ 11 ; 
FONCE 42 ~ CLAIR 48 (+) = 15 ~ 17 (+) ; 14 ~ 16 (+) ; 13 ~ 15 (+) ; 
FONCE 39 ~ CLAIR 45 (+) = 6 ~ 18 (+) ; 19 (+) ~ 12 ; 14 ~ 15 (+) ; 
FONCE 36 ~ CLAIR 50 (+) = 10 ~ 20 (+) ; 6 ~ 20 (+) ; 20 (+) ~ 10 ; 
FONCE 37 ~ CLAIR 52 (+) = 13 ~ 17 (+) ; 11 ~ 20 (+) ; 13 ~ 15 (+) ; 
FONCE 22 ~ CLAIR 55 (+) = 8 ~ 16 (+) ; null ~ 20 (+) ; 14 ~ 19 (+) ; 
FONCE 38 ~ CLAIR 53 (+) = 11 ~ 20 (+) ; 13 ~ 18 (+) ; 14 ~ 15 (+) ; 
FONCE 49 (+) ~ CLAIR 44 = 15 ~ 16 (+) ; 16 (+) ~ 15 ; 18 (+) ~ 13 ; 
FONCE 38 ~ CLAIR 52 (+) = 13 ~ 16 (+) ; 15 ~ 16 (+) ; 10 ~ 20 (+) ; 
FONCE 44 (+) ~ CLAIR 43 = 17 (+) ~ 14 ; 7 ~ 18 (+) ; 20 (+) ~ 11 ; 
FONCE 44 (+) ~ CLAIR 43 = 15 ~ 16 (+) ; 11 ~ 14 (+) ; 18 (+) ~ 13 ; 
FONCE 37 ~ CLAIR 53 (+) = 9 ~ 20 (+) ; 14 ~ 18 (+) ; 14 ~ 15 (+) ; 
FONCE 40 ~ CLAIR 49 (+) = 13 ~ 17 (+) ; 11 ~ 19 (+) ; 16 (+) ~ 13 ; 
FONCE 41 (+) ~ CLAIR 38 = 13 ~ 13 ; 12 (+) ~ 10 ; 16 (+) ~ 15 ; 
FONCE 50 (+) ~ CLAIR 35 = 16 ~ 16 ; 14 (+) ~ 13 ; 20 (+) ~ 6 ; 
FONCE 40 ~ CLAIR 55 (+) = 13 ~ 20 (+) ; 13 ~ 17 (+) ; 14 ~ 18 (+) ; 
FONCE 37 ~ CLAIR 49 (+) = 14 ~ 16 (+) ; 8 ~ 20 (+) ; 15 (+) ~ 13 ; 
FONCE 34 ~ CLAIR 55 (+) = 15 ~ 15 ; 11 ~ 20 (+) ; 8 ~ 20 (+) ; 
FONCE 44 (+) ~ CLAIR 43 = 7 ~ 20 (+) ; 20 (+) ~ 10 ; 17 (+) ~ 13 ; 
FONCE 44 (+) ~ CLAIR 42 = 11 ~ 19 (+) ; 20 (+) ~ 9 ; 13 ~ 14 (+) ; 
FONCE 49 (+) ~ CLAIR 40 = 15 ~ 16 (+) ; 18 (+) ~ 11 ; 16 (+) ~ 13 ; 
FONCE 45 (+) ~ CLAIR 44 = 16 (+) ~ 13 ; 14 ~ 17 (+) ; 15 (+) ~ 14 ; 
FONCE 55 (+) ~ CLAIR 34 = 20 (+) ~ 10 ; 19 (+) ~ 10 ; 16 (+) ~ 14 ; 
FONCE 43 (+) ~ CLAIR 40 = 16 ~ 16 ; 18 (+) ~ 13 ; 9 ~ 11 (+) ; 
FONCE 41 ~ CLAIR 43 (+) = 13 ~ 16 (+) ; 15 (+) ~ 13 ; 13 ~ 14 (+) ; 
FONCE 46 (+) ~ CLAIR 40 = 14 (+) ~ 12 ; 16 (+) ~ 15 ; 16 (+) ~ 13 ; 
FONCE 38 (+) ~ CLAIR 32 = 13 ~ 13 ; 10 (+) ~ 9 ; 15 (+) ~ 10 ; 
FONCE 43 ~ CLAIR 45 (+) = 13 ~ 13 ; 16 ~ 17 (+) ; 14 ~ 15 (+) ; 
FONCE 54 (+) ~ CLAIR 39 = 19 (+) ~ 11 ; 18 (+) ~ 14 ; 17 (+) ~ 14 ; 
FONCE 53 (+) ~ CLAIR 39 = 15 ~ 16 (+) ; 19 (+) ~ 12 ; 19 (+) ~ 11 ; 
FONCE 48 (+) ~ CLAIR 42 = 16 (+) ~ 14 ; 17 (+) ~ 14 ; 15 (+) ~ 14 ; 
FONCE 48 (+) ~ CLAIR 42 = 17 (+) ~ 13 ; 19 (+) ~ 12 ; 12 ~ 17 (+) ; 
FONCE 37 ~ CLAIR 51 (+) = 13 ~ 15 (+) ; 13 ~ 17 (+) ; 11 ~ 19 (+) ; 
FONCE 41 (+) ~ CLAIR 40 = 12 ~ 13 (+) ; 17 (+) ~ 14 ; 12 ~ 13 (+) ; 
FONCE 32 ~ CLAIR 36 (+) = 9 ~ 17 (+) ; 11 ~ 14 (+) ; 12 (+) ~ 5 ; 
FONCE 40 (+) ~ CLAIR 36 = 8 ~ 20 (+) ; 20 (+) ~ 4 ; 12 ~ 12 ; 
FONCE 39 ~ CLAIR 50 (+) = 6 ~ 20 (+) ; 14 ~ 17 (+) ; 19 (+) ~ 13 ; 
FONCE 48 (+) ~ CLAIR 41 = 13 ~ 15 (+) ; 19 (+) ~ 11 ; 16 (+) ~ 15 ; 
FONCE 40 ~ CLAIR 45 (+) = 9 ~ 16 (+) ; 17 (+) ~ 13 ; 14 ~ 16 (+) ; 
FONCE 43 ~ CLAIR 51 (+) = 12 ~ 20 (+) ; 12 ~ 19 (+) ; 19 (+) ~ 12 ; 
FONCE 46 (+) ~ CLAIR 43 = 14 ~ 15 (+) ; 16 (+) ~ 15 ; 16 (+) ~ 13 ; 
FONCE 43 (+) ~ CLAIR 27 = 13 (+) ~ 12 ; 10 (+) ~ 7 ; 20 (+) ~ 8 ; 
FONCE 43 ~ CLAIR 45 (+) = 12 ~ 16 (+) ; 15 (+) ~ 12 ; 16 ~ 17 (+) ; 
FONCE 42 (+) ~ CLAIR 35 = 7 ~ 10 (+) ; 20 (+) ~ 11 ; 15 (+) ~ 14 ; 
FONCE 38 ~ CLAIR 50 (+) = 12 ~ 15 (+) ; 11 ~ 19 (+) ; 15 ~ 16 (+) ; 
FONCE 46 (+) ~ CLAIR 41 = 20 (+) ~ 7 ; 16 (+) ~ 14 ; 10 ~ 20 (+) ; 
FONCE 35 ~ CLAIR 44 (+) = 13 ~ 16 (+) ; 11 ~ 20 (+) ; 11 (+) ~ 8 ; 
FONCE 47 ~ CLAIR 47 = 17 (+) ~ 14 ; 14 ~ 17 (+) ; 16 ~ 16 ; 
FONCE 35 ~ CLAIR 50 (+) = 7 ~ 20 (+) ; 15 ~ 16 (+) ; 13 ~ 14 (+) ; 
FONCE 40 ~ CLAIR 49 (+) = 11 ~ 20 (+) ; 14 ~ 14 ; 15 ~ 15 ; 
FONCE 41 ~ CLAIR 45 (+) = 10 ~ 20 (+) ; 20 (+) ~ 9 ; 11 ~ 16 (+) ; 
FONCE 44 (+) ~ CLAIR 35 = 14 (+) ~ 9 ; 15 (+) ~ 14 ; 15 (+) ~ 12 ; 
FONCE 45 (+) ~ CLAIR 42 = 15 (+) ~ 11 ; 18 (+) ~ 12 ; 12 ~ 19 (+) ; 
FONCE 41 ~ CLAIR 51 (+) = 14 ~ 16 (+) ; 13 ~ 18 (+) ; 14 ~ 17 (+) ; 
FONCE 44 ~ CLAIR 46 (+) = 18 (+) ~ 13 ; 12 ~ 17 (+) ; 14 ~ 16 (+) ; 
FONCE 36 ~ CLAIR 52 (+) = 16 ~ 16 ; 12 ~ 16 (+) ; 8 ~ 20 (+) ; 
FONCE 42 ~ CLAIR 46 (+) = 9 ~ 20 (+) ; 13 ~ 17 (+) ; 20 (+) ~ 9 ; 
FONCE 38 ~ CLAIR 46 (+) = 15 ~ 17 (+) ; 16 (+) ~ 9 ; 7 ~ 20 (+) ; 
FONCE 46 (+) ~ CLAIR 36 = 13 ~ 13 ; 13 ~ 14 (+) ; 20 (+) ~ 9 ; 
FONCE 30 ~ CLAIR 57 (+) = 4 ~ 20 (+) ; 15 ~ 17 (+) ; 11 ~ 20 (+) ; 
FONCE 39 ~ CLAIR 48 (+) = 17 (+) ~ 14 ; 16 (+) ~ 14 ; 6 ~ 20 (+) ; 
FONCE 53 (+) ~ CLAIR 35 = 20 (+) ~ 8 ; 16 (+) ~ 14 ; 17 (+) ~ 13 ; 
FONCE 49 (+) ~ CLAIR 29 = 18 (+) ~ 12 ; 19 (+) ~ 10 ; 12 (+) ~ 7 ; 
FONCE 51 (+) ~ CLAIR 40 = 14 ~ 16 (+) ; 18 (+) ~ 11 ; 19 (+) ~ 13 ; 
FONCE 47 (+) ~ CLAIR 41 = 20 (+) ~ 8 ; 9 ~ 20 (+) ; 18 (+) ~ 13 ; 
FONCE 38 ~ CLAIR 41 (+) = 6 ~ 13 (+) ; 20 (+) ~ 10 ; 12 ~ 18 (+) ; 
FONCE 35 ~ CLAIR 46 (+) = 12 (+) ~ 9 ; 11 ~ 20 (+) ; 12 ~ 17 (+) ; 
FONCE 40 ~ CLAIR 50 (+) = 15 ~ 16 (+) ; 11 ~ 18 (+) ; 14 ~ 16 (+) ; 
FONCE 35 ~ CLAIR 58 (+) = 13 ~ 18 (+) ; 13 ~ 20 (+) ; 9 ~ 20 (+) ; 
FONCE 44 ~ CLAIR 49 (+) = 17 (+) ~ 14 ; 15 ~ 16 (+) ; 12 ~ 19 (+) ; 
FONCE 46 (+) ~ CLAIR 44 = 16 ~ 16 ; 13 ~ 15 (+) ; 17 (+) ~ 13 ; 
FONCE 42 ~ CLAIR 42 (+) = 10 ~ 12 (+) ; 15 ~ 16 (+) ; 17 (+) ~ 14 ; 
FONCE 46 (+) ~ CLAIR 39 = 15 (+) ~ 10 ; 18 (+) ~ 13 ; 13 ~ 16 (+) ; 
FONCE 41 ~ CLAIR 43 (+) = 14 ~ 17 (+) ; 13 (+) ~ 12 ; 14 ~ 14 ; 
FONCE 44 ~ CLAIR 45 (+) = 13 ~ 18 (+) ; 14 ~ 15 (+) ; 17 (+) ~ 12 ; 
FONCE 38 ~ CLAIR 38 (+) = 10 ~ 11 (+) ; 17 (+) ~ 13 ; 11 ~ 14 (+) ; 
FONCE 34 ~ CLAIR 53 (+) = 11 ~ 18 (+) ; 16 (+) ~ 15 ; 7 ~ 20 (+) ; 
FONCE 36 ~ CLAIR 54 (+) = 11 ~ 19 (+) ; 12 ~ 18 (+) ; 13 ~ 17 (+) ; 
FONCE 43 ~ CLAIR 46 (+) = 16 (+) ~ 14 ; 8 ~ 20 (+) ; 19 (+) ~ 12 ; 
FONCE 40 ~ CLAIR 47 (+) = 10 ~ 19 (+) ; 16 (+) ~ 13 ; 14 ~ 15 (+) ; 
FONCE 38 ~ CLAIR 50 (+) = 15 (+) ~ 14 ; 10 ~ 20 (+) ; 13 ~ 16 (+) ; 
FONCE 36 ~ CLAIR 51 (+) = 6 ~ 20 (+) ; 10 ~ 20 (+) ; 20 (+) ~ 11 ; 
FONCE 51 (+) ~ CLAIR 40 = 17 (+) ~ 14 ; 19 (+) ~ 10 ; 15 ~ 16 (+) ; 
FONCE 50 (+) ~ CLAIR 36 = 20 (+) ~ 9 ; 15 (+) ~ 13 ; 15 (+) ~ 14 ; 
FONCE 49 (+) ~ CLAIR 40 = 20 (+) ~ 10 ; 17 (+) ~ 13 ; 12 ~ 17 (+) ; 
FONCE 52 (+) ~ CLAIR 38 = 18 (+) ~ 13 ; 14 ~ 16 (+) ; 20 (+) ~ 9 ; 
FONCE 45 (+) ~ CLAIR 42 = 13 ~ 13 ; 20 (+) ~ 10 ; 12 ~ 19 (+) ; 
FONCE 43 ~ CLAIR 46 (+) = 12 ~ 16 (+) ; 15 ~ 15 ; 16 (+) ~ 15 ; 
FONCE 48 (+) ~ CLAIR 39 = 17 (+) ~ 13 ; 16 (+) ~ 15 ; 15 (+) ~ 11 ; 
FONCE 48 (+) ~ CLAIR 43 = 19 (+) ~ 10 ; 11 ~ 20 (+) ; 18 (+) ~ 13 ; 
FONCE 38 ~ CLAIR 44 (+) = 15 (+) ~ 12 ; 11 ~ 15 (+) ; 12 ~ 17 (+) ; 
FONCE 44 (+) ~ CLAIR 36 = 16 (+) ~ 11 ; 17 (+) ~ 14 ; 11 ~ 11 ; 
FONCE 51 (+) ~ CLAIR 30 = 20 (+) ~ 12 ; 11 ~ 11 ; 20 (+) ~ 7 ; 
FONCE 47 (+) ~ CLAIR 38 = 17 (+) ~ 9 ; 17 (+) ~ 11 ; 13 ~ 18 (+) ; 
FONCE 41 ~ CLAIR 53 (+) = 14 ~ 17 (+) ; 12 ~ 20 (+) ; 15 ~ 16 (+) ; 
FONCE 36 ~ CLAIR 46 (+) = 18 (+) ~ 13 ; 7 ~ 20 (+) ; 11 ~ 13 (+) ; 
FONCE 37 ~ CLAIR 49 (+) = 8 ~ 18 (+) ; 15 ~ 16 (+) ; 14 ~ 15 (+) ; 
FONCE 47 (+) ~ CLAIR 29 = 15 (+) ~ 13 ; 12 (+) ~ 9 ; 20 (+) ~ 7 ; 
FONCE 48 (+) ~ CLAIR 37 = 20 (+) ~ 9 ; 12 ~ 15 (+) ; 16 (+) ~ 13 ; 
FONCE 38 (+) ~ CLAIR 26 = 16 (+) ~ 15 ; 2 ~ 4 (+) ; 20 (+) ~ 7 ; 
FONCE 50 (+) ~ CLAIR 42 = 16 ~ 16 ; 18 (+) ~ 12 ; 16 (+) ~ 14 ; 
FONCE 33 ~ CLAIR 60 (+) = 12 ~ 20 (+) ; 11 ~ 20 (+) ; 10 ~ 20 (+) ; 
FONCE 41 ~ CLAIR 47 (+) = 13 ~ 19 (+) ; 16 (+) ~ 14 ; 12 ~ 14 (+) ; 
FONCE 49 (+) ~ CLAIR 47 = 14 ~ 20 (+) ; 17 (+) ~ 14 ; 18 (+) ~ 13 ; 
FONCE 44 ~ CLAIR 44 (+) = 14 ~ 18 (+) ; 10 ~ 15 (+) ; 20 (+) ~ 11 ; 
FONCE 28 ~ CLAIR 49 (+) = 16 (+) ~ 10 ; null ~ 20 (+) ; 12 ~ 19 (+) ; 
FONCE 49 (+) ~ CLAIR 28 = 13 (+) ~ 11 ; 16 (+) ~ 10 ; 20 (+) ~ 7 ; 
FONCE 43 ~ CLAIR 48 (+) = 14 ~ 17 (+) ; 14 ~ 17 (+) ; 15 (+) ~ 14 ; 
FONCE 45 ~ CLAIR 46 (+) = 19 (+) ~ 10 ; 13 ~ 18 (+) ; 13 ~ 18 (+) ; 
FONCE 42 (+) ~ CLAIR 33 = 19 (+) ~ 8 ; 16 (+) ~ 5 ; 7 ~ 20 (+) ; 
FONCE 51 (+) ~ CLAIR 34 = 20 (+) ~ 6 ; 20 (+) ~ 9 ; 11 ~ 19 (+) ; 
FONCE 41 ~ CLAIR 49 (+) = 17 (+) ~ 14 ; 11 ~ 18 (+) ; 13 ~ 17 (+) ; 
FONCE 34 ~ CLAIR 47 (+) = 16 (+) ~ 14 ; 18 (+) ~ 13 ; null ~ 20 (+) ; 
FONCE 45 (+) ~ CLAIR 38 = 19 (+) ~ 12 ; 6 ~ 15 (+) ; 20 (+) ~ 11 ; 
FONCE 49 (+) ~ CLAIR 39 = 16 (+) ~ 12 ; 20 (+) ~ 9 ; 13 ~ 18 (+) ; 
FONCE 39 ~ CLAIR 49 (+) = 14 ~ 15 (+) ; 15 ~ 16 (+) ; 10 ~ 18 (+) ; 
FONCE 51 (+) ~ CLAIR 34 = 14 (+) ~ 12 ; 17 (+) ~ 11 ; 20 (+) ~ 11 ; 
FONCE 26 ~ CLAIR 52 (+) = 8 ~ 20 (+) ; 9 ~ 20 (+) ; 9 ~ 12 (+) ; 
FONCE 37 ~ CLAIR 44 (+) = 15 ~ 15 ; 13 ~ 20 (+) ; 9 ~ 9 ; 
FONCE 52 (+) ~ CLAIR 39 = 16 ~ 16 ; 16 (+) ~ 13 ; 20 (+) ~ 10 ; 
FONCE 44 (+) ~ CLAIR 38 = 18 (+) ~ 13 ; 13 (+) ~ 10 ; 13 ~ 15 (+) ; 
FONCE 46 (+) ~ CLAIR 46 = 11 ~ 19 (+) ; 16 (+) ~ 14 ; 19 (+) ~ 13 ; 
FONCE 37 ~ CLAIR 53 (+) = 14 ~ 17 (+) ; 7 ~ 20 (+) ; 16 ~ 16 ; 
FONCE 54 (+) ~ CLAIR 33 = 16 (+) ~ 14 ; 20 (+) ~ 6 ; 18 (+) ~ 13 ; 
FONCE 36 ~ CLAIR 44 (+) = 11 ~ 14 (+) ; 11 ~ 16 (+) ; 14 ~ 14 ; 
FONCE 48 (+) ~ CLAIR 40 = 15 ~ 18 (+) ; 19 (+) ~ 11 ; 14 (+) ~ 11 ; 
FONCE 49 (+) ~ CLAIR 32 = 14 ~ 15 (+) ; 20 (+) ~ 7 ; 15 (+) ~ 10 ; 
FONCE 42 ~ CLAIR 46 (+) = 19 (+) ~ 10 ; 14 ~ 16 (+) ; 9 ~ 20 (+) ; 
FONCE 49 (+) ~ CLAIR 40 = 12 ~ 18 (+) ; 20 (+) ~ 9 ; 17 (+) ~ 13 ; 
FONCE 47 (+) ~ CLAIR 44 = 13 ~ 17 (+) ; 15 ~ 16 (+) ; 19 (+) ~ 11 ; 
FONCE 43 ~ CLAIR 47 (+) = 15 ~ 15 ; 12 ~ 18 (+) ; 16 (+) ~ 14 ; 
FONCE 35 ~ CLAIR 48 (+) = 5 ~ 20 (+) ; 20 (+) ~ 10 ; 10 ~ 18 (+) ; 
FONCE 51 (+) ~ CLAIR 39 = 16 (+) ~ 13 ; 15 ~ 17 (+) ; 20 (+) ~ 9 ; 
FONCE 37 ~ CLAIR 57 (+) = 8 ~ 20 (+) ; 13 ~ 20 (+) ; 16 ~ 17 (+) ; 
FONCE 37 ~ CLAIR 54 (+) = 14 ~ 16 (+) ; 10 ~ 20 (+) ; 13 ~ 18 (+) ; 
FONCE 39 ~ CLAIR 49 (+) = 20 (+) ~ 11 ; 10 ~ 18 (+) ; 9 ~ 20 (+) ; 
FONCE 48 (+) ~ CLAIR 45 = 18 (+) ~ 15 ; 12 ~ 18 (+) ; 18 (+) ~ 12 ; 
FONCE 42 (+) ~ CLAIR 36 = 9 (+) ~ 7 ; 17 (+) ~ 14 ; 16 (+) ~ 15 ; 
FONCE 53 (+) ~ CLAIR 30 = 20 (+) ~ 7 ; 13 (+) ~ 12 ; 20 (+) ~ 11 ; 
FONCE 50 (+) ~ CLAIR 39 = 16 (+) ~ 12 ; 14 ~ 16 (+) ; 20 (+) ~ 11 ; 
FONCE 46 ~ CLAIR 46 (+) = 19 (+) ~ 11 ; 13 ~ 18 (+) ; 14 ~ 17 (+) ; 
FONCE 44 ~ CLAIR 47 (+) = 18 (+) ~ 13 ; 15 ~ 16 (+) ; 11 ~ 18 (+) ; 
FONCE 55 (+) ~ CLAIR 33 = 20 (+) ~ 9 ; 19 (+) ~ 11 ; 16 (+) ~ 13 ; 
FONCE 50 (+) ~ CLAIR 41 = 17 (+) ~ 15 ; 17 (+) ~ 11 ; 16 (+) ~ 15 ; 
FONCE 54 (+) ~ CLAIR 37 = 20 (+) ~ 10 ; 19 (+) ~ 12 ; 15 ~ 15 ; 
FONCE 33 ~ CLAIR 49 (+) = 8 ~ 20 (+) ; 15 ~ 16 (+) ; 10 ~ 13 (+) ; 
FONCE 42 ~ CLAIR 44 (+) = 11 ~ 20 (+) ; 13 ~ 14 (+) ; 18 (+) ~ 10 ; 
FONCE 52 (+) ~ CLAIR 43 = 18 (+) ~ 13 ; 16 ~ 16 ; 18 (+) ~ 14 ; 
FONCE 42 ~ CLAIR 47 (+) = 9 ~ 20 (+) ; 18 (+) ~ 11 ; 15 ~ 16 (+) ; 
FONCE 45 (+) ~ CLAIR 42 = 9 ~ 19 (+) ; 16 (+) ~ 13 ; 20 (+) ~ 10 ; 
FONCE 43 ~ CLAIR 51 (+) = 13 ~ 17 (+) ; 14 ~ 18 (+) ; 16 ~ 16 ; 
FONCE 49 (+) ~ CLAIR 43 = 16 (+) ~ 15 ; 16 (+) ~ 14 ; 17 (+) ~ 14 ; 
